%YAML 1.1
%TAG !u! tag:unity3d.com,2011:
--- !u!74 &7400000
AnimationClip:
  m_ObjectHideFlags: 0
  m_PrefabParentObject: {fileID: 0}
  m_PrefabInternal: {fileID: 0}
  m_Name: cannonfire
  serializedVersion: 6
  m_Legacy: 1
  m_Compressed: 0
  m_UseHighQualityCurve: 1
  m_RotationCurves:
  - curve:
      serializedVersion: 2
      m_Curve:
      - serializedVersion: 2
        time: 0
        value: {x: 0, y: 0, z: 0, w: 1}
        inSlope: {x: -0.16398044, y: 0, z: 0, w: -0.00022530554}
        outSlope: {x: -0.16398044, y: 0, z: 0, w: -0.00022530554}
        tangentMode: 0
      - serializedVersion: 2
        time: 0.016666668
        value: {x: -0.0027330075, y: 0, z: 0, w: 0.99999624}
        inSlope: {x: -0.30453026, y: 0, z: 0, w: -0.0015449523}
        outSlope: {x: -0.30453026, y: 0, z: 0, w: -0.0015449523}
        tangentMode: 0
      - serializedVersion: 2
        time: 0.033333335
        value: {x: -0.010151009, y: 0, z: 0, w: 0.9999485}
        inSlope: {x: -0.5504597, y: 0, z: 0, w: -0.006555318}
        outSlope: {x: -0.5504597, y: 0, z: 0, w: -0.006555318}
        tangentMode: 0
      - serializedVersion: 2
        time: 0.050000004
        value: {x: -0.021081666, y: 0, z: 0, w: 0.99977773}
        inSlope: {x: -0.72600245, y: 0, z: 0, w: -0.016159415}
        outSlope: {x: -0.72600245, y: 0, z: 0, w: -0.016159415}
        tangentMode: 0
      - serializedVersion: 2
        time: 0.06666667
        value: {x: -0.03435109, y: 0, z: 0, w: 0.99940985}
        inSlope: {x: -0.83108187, y: 0, z: 0, w: -0.029051904}
        outSlope: {x: -0.83108187, y: 0, z: 0, w: -0.029051904}
        tangentMode: 0
      - serializedVersion: 2
        time: 0.083333336
        value: {x: -0.048784394, y: 0, z: 0, w: 0.99880934}
        inSlope: {x: -0.86569273, y: 0, z: 0, w: -0.042284135}
        outSlope: {x: -0.86569273, y: 0, z: 0, w: -0.042284135}
        tangentMode: 0
      - serializedVersion: 2
        time: 0.1
        value: {x: -0.063207515, y: 0, z: 0, w: 0.9980004}
        inSlope: {x: -0.8299575, y: 0, z: 0, w: -0.052075986}
        outSlope: {x: -0.8299575, y: 0, z: 0, w: -0.052075986}
        tangentMode: 0
      - serializedVersion: 2
        time: 0.11666667
        value: {x: -0.07644964, y: 0, z: 0, w: 0.9970735}
        inSlope: {x: -0.7241212, y: 0, z: 0, w: -0.05466699}
        outSlope: {x: -0.7241212, y: 0, z: 0, w: -0.05466699}
        tangentMode: 0
      - serializedVersion: 2
        time: 0.13333334
        value: {x: -0.08734489, y: 0, z: 0, w: 0.99617815}
        inSlope: {x: -0.5484781, y: 0, z: 0, w: -0.04712104}
        outSlope: {x: -0.5484781, y: 0, z: 0, w: -0.04712104}
        tangentMode: 0
      - serializedVersion: 2
        time: 0.15
        value: {x: -0.09473225, y: 0, z: 0, w: 0.99550277}
        inSlope: {x: -0.303232, y: 0, z: 0, w: -0.028139953}
        outSlope: {x: -0.303232, y: 0, z: 0, w: -0.028139953}
        tangentMode: 0
      - serializedVersion: 2
        time: 0.16666667
        value: {x: -0.097452626, y: 0, z: 0, w: 0.99524015}
        inSlope: {x: -0.060482256, y: 0, z: 0, w: -0.005816818}
        outSlope: {x: -0.060482256, y: 0, z: 0, w: -0.005816818}
        tangentMode: 0
      - serializedVersion: 2
        time: 0.18333334
        value: {x: -0.09674832, y: 0, z: 0, w: 0.9953089}
        inSlope: {x: 0.08161091, y: 0, z: 0, w: 0.007878543}
        outSlope: {x: 0.08161091, y: 0, z: 0, w: 0.007878543}
        tangentMode: 0
      - serializedVersion: 2
        time: 0.2
        value: {x: -0.09473226, y: 0, z: 0, w: 0.99550277}
        inSlope: {x: 0.15596421, y: 0, z: 0, w: 0.014750363}
        outSlope: {x: 0.15596421, y: 0, z: 0, w: 0.014750363}
        tangentMode: 0
      - serializedVersion: 2
        time: 0.21666667
        value: {x: -0.091549516, y: 0, z: 0, w: 0.99580055}
        inSlope: {x: 0.22162044, y: 0, z: 0, w: 0.020261409}
        outSlope: {x: 0.22162044, y: 0, z: 0, w: 0.020261409}
        tangentMode: 0
      - serializedVersion: 2
        time: 0.23333333
        value: {x: -0.087344915, y: 0, z: 0, w: 0.99617815}
        inSlope: {x: 0.27858657, y: 0, z: 0, w: 0.024302604}
        outSlope: {x: 0.27858657, y: 0, z: 0, w: 0.024302604}
        tangentMode: 0
      - serializedVersion: 2
        time: 0.25
        value: {x: -0.0822633, y: 0, z: 0, w: 0.99661064}
        inSlope: {x: 0.32685786, y: 0, z: 0, w: 0.02685963}
        outSlope: {x: 0.32685786, y: 0, z: 0, w: 0.02685963}
        tangentMode: 0
      - serializedVersion: 2
        time: 0.26666668
        value: {x: -0.07644965, y: 0, z: 0, w: 0.9970735}
        inSlope: {x: 0.36642274, y: 0, z: 0, w: 0.027986147}
        outSlope: {x: 0.36642274, y: 0, z: 0, w: 0.027986147}
        tangentMode: 0
      - serializedVersion: 2
        time: 0.28333336
        value: {x: -0.0700492, y: 0, z: 0, w: 0.9975435}
        inSlope: {x: 0.39726388, y: 0, z: 0, w: 0.027807333}
        outSlope: {x: 0.39726388, y: 0, z: 0, w: 0.027807333}
        tangentMode: 0
      - serializedVersion: 2
        time: 0.30000004
        value: {x: -0.06320751, y: 0, z: 0, w: 0.9980004}
        inSlope: {x: 0.41936103, y: 0, z: 0, w: 0.026498415}
        outSlope: {x: 0.41936103, y: 0, z: 0, w: 0.026498415}
        tangentMode: 0
      - serializedVersion: 2
        time: 0.31666672
        value: {x: -0.056070484, y: 0, z: 0, w: 0.9984268}
        inSlope: {x: 0.43269372, y: 0, z: 0, w: 0.024268609}
        outSlope: {x: 0.43269372, y: 0, z: 0, w: 0.024268609}
        tangentMode: 0
      - serializedVersion: 2
        time: 0.3333334
        value: {x: -0.04878437, y: 0, z: 0, w: 0.99880934}
        inSlope: {x: 0.43724453, y: 0, z: 0, w: 0.021357518}
        outSlope: {x: 0.43724453, y: 0, z: 0, w: 0.021357518}
        tangentMode: 0
      - serializedVersion: 2
        time: 0.35000008
        value: {x: -0.041495655, y: 0, z: 0, w: 0.9991387}
        inSlope: {x: 0.432999, y: 0, z: 0, w: 0.018015489}
        outSlope: {x: 0.432999, y: 0, z: 0, w: 0.018015489}
        tangentMode: 0
      - serializedVersion: 2
        time: 0.36666676
        value: {x: -0.03435106, y: 0, z: 0, w: 0.99940985}
        inSlope: {x: 0.4199465, y: 0, z: 0, w: 0.014494646}
        outSlope: {x: 0.4199465, y: 0, z: 0, w: 0.014494646}
        tangentMode: 0
      - serializedVersion: 2
        time: 0.38333344
        value: {x: -0.027497426, y: 0, z: 0, w: 0.99962187}
        inSlope: {x: 0.39808285, y: 0, z: 0, w: 0.011036387}
        outSlope: {x: 0.39808285, y: 0, z: 0, w: 0.011036387}
        tangentMode: 0
      - serializedVersion: 2
        time: 0.40000013
        value: {x: -0.021081619, y: 0, z: 0, w: 0.99977773}
        inSlope: {x: 0.36740595, y: 0, z: 0, w: 0.00785529}
        outSlope: {x: 0.36740595, y: 0, z: 0, w: 0.00785529}
        tangentMode: 0
      - serializedVersion: 2
        time: 0.4166668
        value: {x: -0.01525055, y: 0, z: 0, w: 0.9998837}
        inSlope: {x: 0.3279189, y: 0, z: 0, w: 0.005123015}
        outSlope: {x: 0.3279189, y: 0, z: 0, w: 0.005123015}
        tangentMode: 0
      - serializedVersion: 2
        time: 0.4333335
        value: {x: -0.01015098, y: 0, z: 0, w: 0.9999485}
        inSlope: {x: 0.27962846, y: 0, z: 0, w: 0.0029611564}
        outSlope: {x: 0.27962846, y: 0, z: 0, w: 0.0029611564}
        tangentMode: 0
      - serializedVersion: 2
        time: 0.45000017
        value: {x: -0.005929593, y: 0, z: 0, w: 0.9999824}
        inSlope: {x: 0.22253975, y: 0, z: 0, w: 0.0014322984}
        outSlope: {x: 0.22253975, y: 0, z: 0, w: 0.0014322984}
        tangentMode: 0
      - serializedVersion: 2
        time: 0.46666685
        value: {x: -0.0027329824, y: 0, z: 0, w: 0.99999624}
        inSlope: {x: 0.15665811, y: 0, z: 0, w: 0.0005203481}
        outSlope: {x: 0.15665811, y: 0, z: 0, w: 0.0005203481}
        tangentMode: 0
      - serializedVersion: 2
        time: 0.48333353
        value: {x: -0.0007076518, y: 0, z: 0, w: 0.99999976}
        inSlope: {x: 0.081989445, y: 0, z: 0, w: 0.0001126527}
        outSlope: {x: 0.081989445, y: 0, z: 0, w: 0.0001126527}
        tangentMode: 0
      - serializedVersion: 2
        time: 0.5000002
        value: {x: 0, y: 0, z: 0, w: 1}
        inSlope: {x: 0.021229574, y: 0, z: 0, w: 0.000007152564}
        outSlope: {x: 0.021229574, y: 0, z: 0, w: 0.000007152564}
        tangentMode: 0
      - serializedVersion: 2
        time: 0.5166668
        value: {x: 0, y: 0, z: 0, w: 1}
        inSlope: {x: 0, y: 0, z: 0, w: 0}
        outSlope: {x: 0, y: 0, z: 0, w: 0}
        tangentMode: 0
      - serializedVersion: 2
        time: 0.5333335
        value: {x: 0, y: 0, z: 0, w: 1}
        inSlope: {x: 0, y: 0, z: 0, w: 0}
        outSlope: {x: 0, y: 0, z: 0, w: 0}
        tangentMode: 0
      - serializedVersion: 2
        time: 0.55000013
        value: {x: 0, y: 0, z: 0, w: 1}
        inSlope: {x: 0, y: 0, z: 0, w: 0}
        outSlope: {x: 0, y: 0, z: 0, w: 0}
        tangentMode: 0
      - serializedVersion: 2
        time: 0.5666668
        value: {x: 0, y: 0, z: 0, w: 1}
        inSlope: {x: 0, y: 0, z: 0, w: 0}
        outSlope: {x: 0, y: 0, z: 0, w: 0}
        tangentMode: 0
      - serializedVersion: 2
        time: 0.58333343
        value: {x: 0, y: 0, z: 0, w: 1}
        inSlope: {x: 0, y: 0, z: 0, w: 0}
        outSlope: {x: 0, y: 0, z: 0, w: 0}
        tangentMode: 0
      - serializedVersion: 2
        time: 0.6000001
        value: {x: 0, y: 0, z: 0, w: 1}
        inSlope: {x: 0, y: 0, z: 0, w: 0}
        outSlope: {x: 0, y: 0, z: 0, w: 0}
        tangentMode: 0
      - serializedVersion: 2
        time: 0.61666673
        value: {x: 0, y: 0, z: 0, w: 1}
        inSlope: {x: 0, y: 0, z: 0, w: 0}
        outSlope: {x: 0, y: 0, z: 0, w: 0}
        tangentMode: 0
      - serializedVersion: 2
        time: 0.6333334
        value: {x: 0, y: 0, z: 0, w: 1}
        inSlope: {x: 0, y: 0, z: 0, w: 0}
        outSlope: {x: 0, y: 0, z: 0, w: 0}
        tangentMode: 0
      - serializedVersion: 2
        time: 0.65000004
        value: {x: 0, y: 0, z: 0, w: 1}
        inSlope: {x: 0, y: 0, z: 0, w: 0}
        outSlope: {x: 0, y: 0, z: 0, w: 0}
        tangentMode: 0
      - serializedVersion: 2
        time: 0.6666667
        value: {x: 0, y: 0, z: 0, w: 1}
        inSlope: {x: 0, y: 0, z: 0, w: 0}
        outSlope: {x: 0, y: 0, z: 0, w: 0}
        tangentMode: 0
      - serializedVersion: 2
        time: 0.68333334
        value: {x: 0, y: 0, z: 0, w: 1}
        inSlope: {x: 0, y: 0, z: 0, w: 0}
        outSlope: {x: 0, y: 0, z: 0, w: 0}
        tangentMode: 0
      - serializedVersion: 2
        time: 0.7
        value: {x: 0, y: 0, z: 0, w: 1}
        inSlope: {x: 0, y: 0, z: 0, w: 0}
        outSlope: {x: 0, y: 0, z: 0, w: 0}
        tangentMode: 0
      - serializedVersion: 2
        time: 0.71666664
        value: {x: 0, y: 0, z: 0, w: 1}
        inSlope: {x: 0, y: 0, z: 0, w: 0}
        outSlope: {x: 0, y: 0, z: 0, w: 0}
        tangentMode: 0
      - serializedVersion: 2
        time: 0.7333333
        value: {x: 0, y: 0, z: 0, w: 1}
        inSlope: {x: 0, y: 0, z: 0, w: 0}
        outSlope: {x: 0, y: 0, z: 0, w: 0}
        tangentMode: 0
      - serializedVersion: 2
        time: 0.74999994
        value: {x: 0, y: 0, z: 0, w: 1}
        inSlope: {x: 0, y: 0, z: 0, w: 0}
        outSlope: {x: 0, y: 0, z: 0, w: 0}
        tangentMode: 0
      - serializedVersion: 2
        time: 0.7666666
        value: {x: 0, y: 0, z: 0, w: 1}
        inSlope: {x: 0, y: 0, z: 0, w: 0}
        outSlope: {x: 0, y: 0, z: 0, w: 0}
        tangentMode: 0
      - serializedVersion: 2
        time: 0.78333324
        value: {x: 0, y: 0, z: 0, w: 1}
        inSlope: {x: 0, y: 0, z: 0, w: 0}
        outSlope: {x: 0, y: 0, z: 0, w: 0}
        tangentMode: 0
      - serializedVersion: 2
        time: 0.7999999
        value: {x: 0, y: 0, z: 0, w: 1}
        inSlope: {x: 0, y: 0, z: 0, w: 0}
        outSlope: {x: 0, y: 0, z: 0, w: 0}
        tangentMode: 0
      - serializedVersion: 2
        time: 0.81666654
        value: {x: 0, y: 0, z: 0, w: 1}
        inSlope: {x: 0, y: 0, z: 0, w: 0}
        outSlope: {x: 0, y: 0, z: 0, w: 0}
        tangentMode: 0
      - serializedVersion: 2
        time: 0.8333332
        value: {x: 0, y: 0, z: 0, w: 1}
        inSlope: {x: 0, y: 0, z: 0, w: 0}
        outSlope: {x: 0, y: 0, z: 0, w: 0}
        tangentMode: 0
      - serializedVersion: 2
        time: 0.84999985
        value: {x: 0, y: 0, z: 0, w: 1}
        inSlope: {x: 0, y: 0, z: 0, w: 0}
        outSlope: {x: 0, y: 0, z: 0, w: 0}
        tangentMode: 0
      - serializedVersion: 2
        time: 0.8666665
        value: {x: 0, y: 0, z: 0, w: 1}
        inSlope: {x: 0, y: 0, z: 0, w: 0}
        outSlope: {x: 0, y: 0, z: 0, w: 0}
        tangentMode: 0
      - serializedVersion: 2
        time: 0.88333315
        value: {x: 0, y: 0, z: 0, w: 1}
        inSlope: {x: 0, y: 0, z: 0, w: 0}
        outSlope: {x: 0, y: 0, z: 0, w: 0}
        tangentMode: 0
      - serializedVersion: 2
        time: 0.8999998
        value: {x: 0, y: 0, z: 0, w: 1}
        inSlope: {x: 0, y: 0, z: 0, w: 0}
        outSlope: {x: 0, y: 0, z: 0, w: 0}
        tangentMode: 0
      - serializedVersion: 2
        time: 0.91666645
        value: {x: 0, y: 0, z: 0, w: 1}
        inSlope: {x: 0, y: 0, z: 0, w: 0}
        outSlope: {x: 0, y: 0, z: 0, w: 0}
        tangentMode: 0
      - serializedVersion: 2
        time: 0.9333331
        value: {x: 0, y: 0, z: 0, w: 1}
        inSlope: {x: 0, y: 0, z: 0, w: 0}
        outSlope: {x: 0, y: 0, z: 0, w: 0}
        tangentMode: 0
      - serializedVersion: 2
        time: 0.94999975
        value: {x: 0, y: 0, z: 0, w: 1}
        inSlope: {x: 0, y: 0, z: 0, w: 0}
        outSlope: {x: 0, y: 0, z: 0, w: 0}
        tangentMode: 0
      - serializedVersion: 2
        time: 0.9666664
        value: {x: 0, y: 0, z: 0, w: 1}
        inSlope: {x: 0, y: 0, z: 0, w: 0}
        outSlope: {x: 0, y: 0, z: 0, w: 0}
        tangentMode: 0
      - serializedVersion: 2
        time: 0.98333305
        value: {x: 0, y: 0, z: 0, w: 1}
        inSlope: {x: 0, y: 0, z: 0, w: 0}
        outSlope: {x: 0, y: 0, z: 0, w: 0}
        tangentMode: 0
      - serializedVersion: 2
        time: 1
        value: {x: 0, y: 0, z: 0, w: 1}
        inSlope: {x: 0, y: 0, z: 0, w: 0}
        outSlope: {x: 0, y: 0, z: 0, w: 0}
        tangentMode: 0
      m_PreInfinity: 2
      m_PostInfinity: 2
      m_RotationOrder: 4
    path: 
  m_CompressedRotationCurves: []
  m_EulerCurves: []
  m_PositionCurves:
  - curve:
      serializedVersion: 2
      m_Curve:
      - serializedVersion: 2
        time: 0
        value: {x: 0, y: 0, z: 0}
        inSlope: {x: 0, y: 0, z: -0.6293825}
        outSlope: {x: 0, y: 0, z: -0.5647557}
        tangentMode: 0
      - serializedVersion: 2
        time: 0.16666667
        value: {x: 0, y: 0, z: -0.09412595}
        inSlope: {x: 0, y: 0, z: -0.5647557}
        outSlope: {x: 0, y: 0, z: 0}
        tangentMode: 0
      - serializedVersion: 2
        time: 1
        value: {x: 0, y: 0, z: 0}
        inSlope: {x: 0, y: 0, z: 0}
        outSlope: {x: 0, y: 0, z: 0}
        tangentMode: 0
      m_PreInfinity: 2
      m_PostInfinity: 2
      m_RotationOrder: 4
    path: 
  m_ScaleCurves: []
  m_FloatCurves: []
  m_PPtrCurves: []
  m_SampleRate: 60
  m_WrapMode: 0
  m_Bounds:
    m_Center: {x: 0, y: 0, z: 0}
    m_Extent: {x: 0, y: 0, z: 0}
  m_ClipBindingConstant:
    genericBindings: []
    pptrCurveMapping: []
  m_AnimationClipSettings:
    serializedVersion: 2
    m_AdditiveReferencePoseClip: {fileID: 0}
    m_AdditiveReferencePoseTime: 0
    m_StartTime: 0
    m_StopTime: 1
    m_OrientationOffsetY: 0
    m_Level: 0
    m_CycleOffset: 0
    m_HasAdditiveReferencePose: 0
    m_LoopTime: 1
    m_LoopBlend: 0
    m_LoopBlendOrientation: 0
    m_LoopBlendPositionY: 0
    m_LoopBlendPositionXZ: 0
    m_KeepOriginalOrientation: 0
    m_KeepOriginalPositionY: 1
    m_KeepOriginalPositionXZ: 0
    m_HeightFromFeet: 0
    m_Mirror: 0
  m_EditorCurves:
  - curve:
      serializedVersion: 2
      m_Curve:
      - serializedVersion: 2
        time: 0
        value: 0
        inSlope: 0
        outSlope: 0
        tangentMode: 136
      - serializedVersion: 2
        time: 0.16666667
        value: 0
        inSlope: 0
        outSlope: 0
        tangentMode: 136
      - serializedVersion: 2
        time: 1
        value: 0
        inSlope: 0
        outSlope: 0
        tangentMode: 136
      m_PreInfinity: 2
      m_PostInfinity: 2
      m_RotationOrder: 4
    attribute: m_LocalPosition.x
    path: 
    classID: 4
    script: {fileID: 0}
  - curve:
      serializedVersion: 2
      m_Curve:
      - serializedVersion: 2
        time: 0
        value: 0
        inSlope: 0
        outSlope: 0
        tangentMode: 136
      - serializedVersion: 2
        time: 0.16666667
        value: 0
        inSlope: 0
        outSlope: 0
        tangentMode: 136
      - serializedVersion: 2
        time: 1
        value: 0
        inSlope: 0
        outSlope: 0
        tangentMode: 136
      m_PreInfinity: 2
      m_PostInfinity: 2
      m_RotationOrder: 4
    attribute: m_LocalPosition.y
    path: 
    classID: 4
    script: {fileID: 0}
  - curve:
      serializedVersion: 2
      m_Curve:
      - serializedVersion: 2
        time: 0
        value: 0
        inSlope: -0.6293825
        outSlope: -0.5647557
        tangentMode: 69
      - serializedVersion: 2
        time: 0.16666667
        value: -0.09412595
        inSlope: -0.5647557
        outSlope: 0
        tangentMode: 5
      - serializedVersion: 2
        time: 1
        value: 0
        inSlope: 0
        outSlope: 0
        tangentMode: 136
      m_PreInfinity: 2
      m_PostInfinity: 2
      m_RotationOrder: 4
    attribute: m_LocalPosition.z
    path: 
    classID: 4
    script: {fileID: 0}
  - curve:
      serializedVersion: 2
      m_Curve:
      - serializedVersion: 2
        time: 0
        value: 0
        inSlope: -0.16398044
        outSlope: -0.16398044
        tangentMode: 0
      - serializedVersion: 2
        time: 0.016666668
        value: -0.0027330075
        inSlope: -0.30453026
        outSlope: -0.30453026
        tangentMode: 0
      - serializedVersion: 2
        time: 0.033333335
        value: -0.010151009
        inSlope: -0.5504597
        outSlope: -0.5504597
        tangentMode: 0
      - serializedVersion: 2
        time: 0.050000004
        value: -0.021081666
        inSlope: -0.72600245
        outSlope: -0.72600245
        tangentMode: 0
      - serializedVersion: 2
        time: 0.06666667
        value: -0.03435109
        inSlope: -0.83108187
        outSlope: -0.83108187
        tangentMode: 0
      - serializedVersion: 2
        time: 0.083333336
        value: -0.048784394
        inSlope: -0.86569273
        outSlope: -0.86569273
        tangentMode: 0
      - serializedVersion: 2
        time: 0.1
        value: -0.063207515
        inSlope: -0.8299575
        outSlope: -0.8299575
        tangentMode: 0
      - serializedVersion: 2
        time: 0.11666667
        value: -0.07644964
        inSlope: -0.7241212
        outSlope: -0.7241212
        tangentMode: 0
      - serializedVersion: 2
        time: 0.13333334
        value: -0.08734489
        inSlope: -0.5484781
        outSlope: -0.5484781
        tangentMode: 0
      - serializedVersion: 2
        time: 0.15
        value: -0.09473225
        inSlope: -0.303232
        outSlope: -0.303232
        tangentMode: 0
      - serializedVersion: 2
        time: 0.16666667
        value: -0.097452626
        inSlope: -0.060482256
        outSlope: -0.060482256
        tangentMode: 0
      - serializedVersion: 2
        time: 0.18333334
        value: -0.09674832
        inSlope: 0.08161091
        outSlope: 0.08161091
        tangentMode: 0
      - serializedVersion: 2
        time: 0.2
        value: -0.09473226
        inSlope: 0.15596421
        outSlope: 0.15596421
        tangentMode: 0
      - serializedVersion: 2
        time: 0.21666667
        value: -0.091549516
        inSlope: 0.22162044
        outSlope: 0.22162044
        tangentMode: 0
      - serializedVersion: 2
        time: 0.23333333
        value: -0.087344915
        inSlope: 0.27858657
        outSlope: 0.27858657
        tangentMode: 0
      - serializedVersion: 2
        time: 0.25
        value: -0.0822633
        inSlope: 0.32685786
        outSlope: 0.32685786
        tangentMode: 0
      - serializedVersion: 2
        time: 0.26666668
        value: -0.07644965
        inSlope: 0.36642274
        outSlope: 0.36642274
        tangentMode: 0
      - serializedVersion: 2
        time: 0.28333336
        value: -0.0700492
        inSlope: 0.39726388
        outSlope: 0.39726388
        tangentMode: 0
      - serializedVersion: 2
        time: 0.30000004
        value: -0.06320751
        inSlope: 0.41936103
        outSlope: 0.41936103
        tangentMode: 0
      - serializedVersion: 2
        time: 0.31666672
        value: -0.056070484
        inSlope: 0.43269372
        outSlope: 0.43269372
        tangentMode: 0
      - serializedVersion: 2
        time: 0.3333334
        value: -0.04878437
        inSlope: 0.43724453
        outSlope: 0.43724453
        tangentMode: 0
      - serializedVersion: 2
        time: 0.35000008
        value: -0.041495655
        inSlope: 0.432999
        outSlope: 0.432999
        tangentMode: 0
      - serializedVersion: 2
        time: 0.36666676
        value: -0.03435106
        inSlope: 0.4199465
        outSlope: 0.4199465
        tangentMode: 0
      - serializedVersion: 2
        time: 0.38333344
        value: -0.027497426
        inSlope: 0.39808285
        outSlope: 0.39808285
        tangentMode: 0
      - serializedVersion: 2
        time: 0.40000013
        value: -0.021081619
        inSlope: 0.36740595
        outSlope: 0.36740595
        tangentMode: 0
      - serializedVersion: 2
        time: 0.4166668
        value: -0.01525055
        inSlope: 0.3279189
        outSlope: 0.3279189
        tangentMode: 0
      - serializedVersion: 2
        time: 0.4333335
        value: -0.01015098
        inSlope: 0.27962846
        outSlope: 0.27962846
        tangentMode: 0
      - serializedVersion: 2
        time: 0.45000017
        value: -0.005929593
        inSlope: 0.22253975
        outSlope: 0.22253975
        tangentMode: 0
      - serializedVersion: 2
        time: 0.46666685
        value: -0.0027329824
        inSlope: 0.15665811
        outSlope: 0.15665811
        tangentMode: 0
      - serializedVersion: 2
        time: 0.48333353
        value: -0.0007076518
        inSlope: 0.081989445
        outSlope: 0.081989445
        tangentMode: 0
      - serializedVersion: 2
        time: 0.5000002
        value: 0
        inSlope: 0.021229574
        outSlope: 0.021229574
        tangentMode: 0
      - serializedVersion: 2
        time: 0.5166668
        value: 0
        inSlope: 0
        outSlope: 0
        tangentMode: 0
      - serializedVersion: 2
        time: 0.5333335
        value: 0
        inSlope: 0
        outSlope: 0
        tangentMode: 0
      - serializedVersion: 2
        time: 0.55000013
        value: 0
        inSlope: 0
        outSlope: 0
        tangentMode: 0
      - serializedVersion: 2
        time: 0.5666668
        value: 0
        inSlope: 0
        outSlope: 0
        tangentMode: 0
      - serializedVersion: 2
        time: 0.58333343
        value: 0
        inSlope: 0
        outSlope: 0
        tangentMode: 0
      - serializedVersion: 2
        time: 0.6000001
        value: 0
        inSlope: 0
        outSlope: 0
        tangentMode: 0
      - serializedVersion: 2
        time: 0.61666673
        value: 0
        inSlope: 0
        outSlope: 0
        tangentMode: 0
      - serializedVersion: 2
        time: 0.6333334
        value: 0
        inSlope: 0
        outSlope: 0
        tangentMode: 0
      - serializedVersion: 2
        time: 0.65000004
        value: 0
        inSlope: 0
        outSlope: 0
        tangentMode: 0
      - serializedVersion: 2
        time: 0.6666667
        value: 0
        inSlope: 0
        outSlope: 0
        tangentMode: 0
      - serializedVersion: 2
        time: 0.68333334
        value: 0
        inSlope: 0
        outSlope: 0
        tangentMode: 0
      - serializedVersion: 2
        time: 0.7
        value: 0
        inSlope: 0
        outSlope: 0
        tangentMode: 0
      - serializedVersion: 2
        time: 0.71666664
        value: 0
        inSlope: 0
        outSlope: 0
        tangentMode: 0
      - serializedVersion: 2
        time: 0.7333333
        value: 0
        inSlope: 0
        outSlope: 0
        tangentMode: 0
      - serializedVersion: 2
        time: 0.74999994
        value: 0
        inSlope: 0
        outSlope: 0
        tangentMode: 0
      - serializedVersion: 2
        time: 0.7666666
        value: 0
        inSlope: 0
        outSlope: 0
        tangentMode: 0
      - serializedVersion: 2
        time: 0.78333324
        value: 0
        inSlope: 0
        outSlope: 0
        tangentMode: 0
      - serializedVersion: 2
        time: 0.7999999
        value: 0
        inSlope: 0
        outSlope: 0
        tangentMode: 0
      - serializedVersion: 2
        time: 0.81666654
        value: 0
        inSlope: 0
        outSlope: 0
        tangentMode: 0
      - serializedVersion: 2
        time: 0.8333332
        value: 0
        inSlope: 0
        outSlope: 0
        tangentMode: 0
      - serializedVersion: 2
        time: 0.84999985
        value: 0
        inSlope: 0
        outSlope: 0
        tangentMode: 0
      - serializedVersion: 2
        time: 0.8666665
        value: 0
        inSlope: 0
        outSlope: 0
        tangentMode: 0
      - serializedVersion: 2
        time: 0.88333315
        value: 0
        inSlope: 0
        outSlope: 0
        tangentMode: 0
      - serializedVersion: 2
        time: 0.8999998
        value: 0
        inSlope: 0
        outSlope: 0
        tangentMode: 0
      - serializedVersion: 2
        time: 0.91666645
        value: 0
        inSlope: 0
        outSlope: 0
        tangentMode: 0
      - serializedVersion: 2
        time: 0.9333331
        value: 0
        inSlope: 0
        outSlope: 0
        tangentMode: 0
      - serializedVersion: 2
        time: 0.94999975
        value: 0
        inSlope: 0
        outSlope: 0
        tangentMode: 0
      - serializedVersion: 2
        time: 0.9666664
        value: 0
        inSlope: 0
        outSlope: 0
        tangentMode: 0
      - serializedVersion: 2
        time: 0.98333305
        value: 0
        inSlope: 0
        outSlope: 0
        tangentMode: 0
      - serializedVersion: 2
        time: 1
        value: 0
        inSlope: 0
        outSlope: 0
        tangentMode: 0
      m_PreInfinity: 2
      m_PostInfinity: 2
      m_RotationOrder: 4
    attribute: m_LocalRotation.x
    path: 
    classID: 4
    script: {fileID: 0}
  - curve:
      serializedVersion: 2
      m_Curve:
      - serializedVersion: 2
        time: 0
        value: 0
        inSlope: 0
        outSlope: 0
        tangentMode: 0
      - serializedVersion: 2
        time: 0.016666668
        value: 0
        inSlope: 0
        outSlope: 0
        tangentMode: 0
      - serializedVersion: 2
        time: 0.033333335
        value: 0
        inSlope: 0
        outSlope: 0
        tangentMode: 0
      - serializedVersion: 2
        time: 0.050000004
        value: 0
        inSlope: 0
        outSlope: 0
        tangentMode: 0
      - serializedVersion: 2
        time: 0.06666667
        value: 0
        inSlope: 0
        outSlope: 0
        tangentMode: 0
      - serializedVersion: 2
        time: 0.083333336
        value: 0
        inSlope: 0
        outSlope: 0
        tangentMode: 0
      - serializedVersion: 2
        time: 0.1
        value: 0
        inSlope: 0
        outSlope: 0
        tangentMode: 0
      - serializedVersion: 2
        time: 0.11666667
        value: 0
        inSlope: 0
        outSlope: 0
        tangentMode: 0
      - serializedVersion: 2
        time: 0.13333334
        value: 0
        inSlope: 0
        outSlope: 0
        tangentMode: 0
      - serializedVersion: 2
        time: 0.15
        value: 0
        inSlope: 0
        outSlope: 0
        tangentMode: 0
      - serializedVersion: 2
        time: 0.16666667
        value: 0
        inSlope: 0
        outSlope: 0
        tangentMode: 0
      - serializedVersion: 2
        time: 0.18333334
        value: 0
        inSlope: 0
        outSlope: 0
        tangentMode: 0
      - serializedVersion: 2
        time: 0.2
        value: 0
        inSlope: 0
        outSlope: 0
        tangentMode: 0
      - serializedVersion: 2
        time: 0.21666667
        value: 0
        inSlope: 0
        outSlope: 0
        tangentMode: 0
      - serializedVersion: 2
        time: 0.23333333
        value: 0
        inSlope: 0
        outSlope: 0
        tangentMode: 0
      - serializedVersion: 2
        time: 0.25
        value: 0
        inSlope: 0
        outSlope: 0
        tangentMode: 0
      - serializedVersion: 2
        time: 0.26666668
        value: 0
        inSlope: 0
        outSlope: 0
        tangentMode: 0
      - serializedVersion: 2
        time: 0.28333336
        value: 0
        inSlope: 0
        outSlope: 0
        tangentMode: 0
      - serializedVersion: 2
        time: 0.30000004
        value: 0
        inSlope: 0
        outSlope: 0
        tangentMode: 0
      - serializedVersion: 2
        time: 0.31666672
        value: 0
        inSlope: 0
        outSlope: 0
        tangentMode: 0
      - serializedVersion: 2
        time: 0.3333334
        value: 0
        inSlope: 0
        outSlope: 0
        tangentMode: 0
      - serializedVersion: 2
        time: 0.35000008
        value: 0
        inSlope: 0
        outSlope: 0
        tangentMode: 0
      - serializedVersion: 2
        time: 0.36666676
        value: 0
        inSlope: 0
        outSlope: 0
        tangentMode: 0
      - serializedVersion: 2
        time: 0.38333344
        value: 0
        inSlope: 0
        outSlope: 0
        tangentMode: 0
      - serializedVersion: 2
        time: 0.40000013
        value: 0
        inSlope: 0
        outSlope: 0
        tangentMode: 0
      - serializedVersion: 2
        time: 0.4166668
        value: 0
        inSlope: 0
        outSlope: 0
        tangentMode: 0
      - serializedVersion: 2
        time: 0.4333335
        value: 0
        inSlope: 0
        outSlope: 0
        tangentMode: 0
      - serializedVersion: 2
        time: 0.45000017
        value: 0
        inSlope: 0
        outSlope: 0
        tangentMode: 0
      - serializedVersion: 2
        time: 0.46666685
        value: 0
        inSlope: 0
        outSlope: 0
        tangentMode: 0
      - serializedVersion: 2
        time: 0.48333353
        value: 0
        inSlope: 0
        outSlope: 0
        tangentMode: 0
      - serializedVersion: 2
        time: 0.5000002
        value: 0
        inSlope: 0
        outSlope: 0
        tangentMode: 0
      - serializedVersion: 2
        time: 0.5166668
        value: 0
        inSlope: 0
        outSlope: 0
        tangentMode: 0
      - serializedVersion: 2
        time: 0.5333335
        value: 0
        inSlope: 0
        outSlope: 0
        tangentMode: 0
      - serializedVersion: 2
        time: 0.55000013
        value: 0
        inSlope: 0
        outSlope: 0
        tangentMode: 0
      - serializedVersion: 2
        time: 0.5666668
        value: 0
        inSlope: 0
        outSlope: 0
        tangentMode: 0
      - serializedVersion: 2
        time: 0.58333343
        value: 0
        inSlope: 0
        outSlope: 0
        tangentMode: 0
      - serializedVersion: 2
        time: 0.6000001
        value: 0
        inSlope: 0
        outSlope: 0
        tangentMode: 0
      - serializedVersion: 2
        time: 0.61666673
        value: 0
        inSlope: 0
        outSlope: 0
        tangentMode: 0
      - serializedVersion: 2
        time: 0.6333334
        value: 0
        inSlope: 0
        outSlope: 0
        tangentMode: 0
      - serializedVersion: 2
        time: 0.65000004
        value: 0
        inSlope: 0
        outSlope: 0
        tangentMode: 0
      - serializedVersion: 2
        time: 0.6666667
        value: 0
        inSlope: 0
        outSlope: 0
        tangentMode: 0
      - serializedVersion: 2
        time: 0.68333334
        value: 0
        inSlope: 0
        outSlope: 0
        tangentMode: 0
      - serializedVersion: 2
        time: 0.7
        value: 0
        inSlope: 0
        outSlope: 0
        tangentMode: 0
      - serializedVersion: 2
        time: 0.71666664
        value: 0
        inSlope: 0
        outSlope: 0
        tangentMode: 0
      - serializedVersion: 2
        time: 0.7333333
        value: 0
        inSlope: 0
        outSlope: 0
        tangentMode: 0
      - serializedVersion: 2
        time: 0.74999994
        value: 0
        inSlope: 0
        outSlope: 0
        tangentMode: 0
      - serializedVersion: 2
        time: 0.7666666
        value: 0
        inSlope: 0
        outSlope: 0
        tangentMode: 0
      - serializedVersion: 2
        time: 0.78333324
        value: 0
        inSlope: 0
        outSlope: 0
        tangentMode: 0
      - serializedVersion: 2
        time: 0.7999999
        value: 0
        inSlope: 0
        outSlope: 0
        tangentMode: 0
      - serializedVersion: 2
        time: 0.81666654
        value: 0
        inSlope: 0
        outSlope: 0
        tangentMode: 0
      - serializedVersion: 2
        time: 0.8333332
        value: 0
        inSlope: 0
        outSlope: 0
        tangentMode: 0
      - serializedVersion: 2
        time: 0.84999985
        value: 0
        inSlope: 0
        outSlope: 0
        tangentMode: 0
      - serializedVersion: 2
        time: 0.8666665
        value: 0
        inSlope: 0
        outSlope: 0
        tangentMode: 0
      - serializedVersion: 2
        time: 0.88333315
        value: 0
        inSlope: 0
        outSlope: 0
        tangentMode: 0
      - serializedVersion: 2
        time: 0.8999998
        value: 0
        inSlope: 0
        outSlope: 0
        tangentMode: 0
      - serializedVersion: 2
        time: 0.91666645
        value: 0
        inSlope: 0
        outSlope: 0
        tangentMode: 0
      - serializedVersion: 2
        time: 0.9333331
        value: 0
        inSlope: 0
        outSlope: 0
        tangentMode: 0
      - serializedVersion: 2
        time: 0.94999975
        value: 0
        inSlope: 0
        outSlope: 0
        tangentMode: 0
      - serializedVersion: 2
        time: 0.9666664
        value: 0
        inSlope: 0
        outSlope: 0
        tangentMode: 0
      - serializedVersion: 2
        time: 0.98333305
        value: 0
        inSlope: 0
        outSlope: 0
        tangentMode: 0
      - serializedVersion: 2
        time: 1
        value: 0
        inSlope: 0
        outSlope: 0
        tangentMode: 0
      m_PreInfinity: 2
      m_PostInfinity: 2
      m_RotationOrder: 4
    attribute: m_LocalRotation.y
    path: 
    classID: 4
    script: {fileID: 0}
  - curve:
      serializedVersion: 2
      m_Curve:
      - serializedVersion: 2
        time: 0
        value: 0
        inSlope: 0
        outSlope: 0
        tangentMode: 0
      - serializedVersion: 2
        time: 0.016666668
        value: 0
        inSlope: 0
        outSlope: 0
        tangentMode: 0
      - serializedVersion: 2
        time: 0.033333335
        value: 0
        inSlope: 0
        outSlope: 0
        tangentMode: 0
      - serializedVersion: 2
        time: 0.050000004
        value: 0
        inSlope: 0
        outSlope: 0
        tangentMode: 0
      - serializedVersion: 2
        time: 0.06666667
        value: 0
        inSlope: 0
        outSlope: 0
        tangentMode: 0
      - serializedVersion: 2
        time: 0.083333336
        value: 0
        inSlope: 0
        outSlope: 0
        tangentMode: 0
      - serializedVersion: 2
        time: 0.1
        value: 0
        inSlope: 0
        outSlope: 0
        tangentMode: 0
      - serializedVersion: 2
        time: 0.11666667
        value: 0
        inSlope: 0
        outSlope: 0
        tangentMode: 0
      - serializedVersion: 2
        time: 0.13333334
        value: 0
        inSlope: 0
        outSlope: 0
        tangentMode: 0
      - serializedVersion: 2
        time: 0.15
        value: 0
        inSlope: 0
        outSlope: 0
        tangentMode: 0
      - serializedVersion: 2
        time: 0.16666667
        value: 0
        inSlope: 0
        outSlope: 0
        tangentMode: 0
      - serializedVersion: 2
        time: 0.18333334
        value: 0
        inSlope: 0
        outSlope: 0
        tangentMode: 0
      - serializedVersion: 2
        time: 0.2
        value: 0
        inSlope: 0
        outSlope: 0
        tangentMode: 0
      - serializedVersion: 2
        time: 0.21666667
        value: 0
        inSlope: 0
        outSlope: 0
        tangentMode: 0
      - serializedVersion: 2
        time: 0.23333333
        value: 0
        inSlope: 0
        outSlope: 0
        tangentMode: 0
      - serializedVersion: 2
        time: 0.25
        value: 0
        inSlope: 0
        outSlope: 0
        tangentMode: 0
      - serializedVersion: 2
        time: 0.26666668
        value: 0
        inSlope: 0
        outSlope: 0
        tangentMode: 0
      - serializedVersion: 2
        time: 0.28333336
        value: 0
        inSlope: 0
        outSlope: 0
        tangentMode: 0
      - serializedVersion: 2
        time: 0.30000004
        value: 0
        inSlope: 0
        outSlope: 0
        tangentMode: 0
      - serializedVersion: 2
        time: 0.31666672
        value: 0
        inSlope: 0
        outSlope: 0
        tangentMode: 0
      - serializedVersion: 2
        time: 0.3333334
        value: 0
        inSlope: 0
        outSlope: 0
        tangentMode: 0
      - serializedVersion: 2
        time: 0.35000008
        value: 0
        inSlope: 0
        outSlope: 0
        tangentMode: 0
      - serializedVersion: 2
        time: 0.36666676
        value: 0
        inSlope: 0
        outSlope: 0
        tangentMode: 0
      - serializedVersion: 2
        time: 0.38333344
        value: 0
        inSlope: 0
        outSlope: 0
        tangentMode: 0
      - serializedVersion: 2
        time: 0.40000013
        value: 0
        inSlope: 0
        outSlope: 0
        tangentMode: 0
      - serializedVersion: 2
        time: 0.4166668
        value: 0
        inSlope: 0
        outSlope: 0
        tangentMode: 0
      - serializedVersion: 2
        time: 0.4333335
        value: 0
        inSlope: 0
        outSlope: 0
        tangentMode: 0
      - serializedVersion: 2
        time: 0.45000017
        value: 0
        inSlope: 0
        outSlope: 0
        tangentMode: 0
      - serializedVersion: 2
        time: 0.46666685
        value: 0
        inSlope: 0
        outSlope: 0
        tangentMode: 0
      - serializedVersion: 2
        time: 0.48333353
        value: 0
        inSlope: 0
        outSlope: 0
        tangentMode: 0
      - serializedVersion: 2
        time: 0.5000002
        value: 0
        inSlope: 0
        outSlope: 0
        tangentMode: 0
      - serializedVersion: 2
        time: 0.5166668
        value: 0
        inSlope: 0
        outSlope: 0
        tangentMode: 0
      - serializedVersion: 2
        time: 0.5333335
        value: 0
        inSlope: 0
        outSlope: 0
        tangentMode: 0
      - serializedVersion: 2
        time: 0.55000013
        value: 0
        inSlope: 0
        outSlope: 0
        tangentMode: 0
      - serializedVersion: 2
        time: 0.5666668
        value: 0
        inSlope: 0
        outSlope: 0
        tangentMode: 0
      - serializedVersion: 2
        time: 0.58333343
        value: 0
        inSlope: 0
        outSlope: 0
        tangentMode: 0
      - serializedVersion: 2
        time: 0.6000001
        value: 0
        inSlope: 0
        outSlope: 0
        tangentMode: 0
      - serializedVersion: 2
        time: 0.61666673
        value: 0
        inSlope: 0
        outSlope: 0
        tangentMode: 0
      - serializedVersion: 2
        time: 0.6333334
        value: 0
        inSlope: 0
        outSlope: 0
        tangentMode: 0
      - serializedVersion: 2
        time: 0.65000004
        value: 0
        inSlope: 0
        outSlope: 0
        tangentMode: 0
      - serializedVersion: 2
        time: 0.6666667
        value: 0
        inSlope: 0
        outSlope: 0
        tangentMode: 0
      - serializedVersion: 2
        time: 0.68333334
        value: 0
        inSlope: 0
        outSlope: 0
        tangentMode: 0
      - serializedVersion: 2
        time: 0.7
        value: 0
        inSlope: 0
        outSlope: 0
        tangentMode: 0
      - serializedVersion: 2
        time: 0.71666664
        value: 0
        inSlope: 0
        outSlope: 0
        tangentMode: 0
      - serializedVersion: 2
        time: 0.7333333
        value: 0
        inSlope: 0
        outSlope: 0
        tangentMode: 0
      - serializedVersion: 2
        time: 0.74999994
        value: 0
        inSlope: 0
        outSlope: 0
        tangentMode: 0
      - serializedVersion: 2
        time: 0.7666666
        value: 0
        inSlope: 0
        outSlope: 0
        tangentMode: 0
      - serializedVersion: 2
        time: 0.78333324
        value: 0
        inSlope: 0
        outSlope: 0
        tangentMode: 0
      - serializedVersion: 2
        time: 0.7999999
        value: 0
        inSlope: 0
        outSlope: 0
        tangentMode: 0
      - serializedVersion: 2
        time: 0.81666654
        value: 0
        inSlope: 0
        outSlope: 0
        tangentMode: 0
      - serializedVersion: 2
        time: 0.8333332
        value: 0
        inSlope: 0
        outSlope: 0
        tangentMode: 0
      - serializedVersion: 2
        time: 0.84999985
        value: 0
        inSlope: 0
        outSlope: 0
        tangentMode: 0
      - serializedVersion: 2
        time: 0.8666665
        value: 0
        inSlope: 0
        outSlope: 0
        tangentMode: 0
      - serializedVersion: 2
        time: 0.88333315
        value: 0
        inSlope: 0
        outSlope: 0
        tangentMode: 0
      - serializedVersion: 2
        time: 0.8999998
        value: 0
        inSlope: 0
        outSlope: 0
        tangentMode: 0
      - serializedVersion: 2
        time: 0.91666645
        value: 0
        inSlope: 0
        outSlope: 0
        tangentMode: 0
      - serializedVersion: 2
        time: 0.9333331
        value: 0
        inSlope: 0
        outSlope: 0
        tangentMode: 0
      - serializedVersion: 2
        time: 0.94999975
        value: 0
        inSlope: 0
        outSlope: 0
        tangentMode: 0
      - serializedVersion: 2
        time: 0.9666664
        value: 0
        inSlope: 0
        outSlope: 0
        tangentMode: 0
      - serializedVersion: 2
        time: 0.98333305
        value: 0
        inSlope: 0
        outSlope: 0
        tangentMode: 0
      - serializedVersion: 2
        time: 1
        value: 0
        inSlope: 0
        outSlope: 0
        tangentMode: 0
      m_PreInfinity: 2
      m_PostInfinity: 2
      m_RotationOrder: 4
    attribute: m_LocalRotation.z
    path: 
    classID: 4
    script: {fileID: 0}
  - curve:
      serializedVersion: 2
      m_Curve:
      - serializedVersion: 2
        time: 0
        value: 1
        inSlope: -0.00022530554
        outSlope: -0.00022530554
        tangentMode: 0
      - serializedVersion: 2
        time: 0.016666668
        value: 0.99999624
        inSlope: -0.0015449523
        outSlope: -0.0015449523
        tangentMode: 0
      - serializedVersion: 2
        time: 0.033333335
        value: 0.9999485
        inSlope: -0.006555318
        outSlope: -0.006555318
        tangentMode: 0
      - serializedVersion: 2
        time: 0.050000004
        value: 0.99977773
        inSlope: -0.016159415
        outSlope: -0.016159415
        tangentMode: 0
      - serializedVersion: 2
        time: 0.06666667
        value: 0.99940985
        inSlope: -0.029051904
        outSlope: -0.029051904
        tangentMode: 0
      - serializedVersion: 2
        time: 0.083333336
        value: 0.99880934
        inSlope: -0.042284135
        outSlope: -0.042284135
        tangentMode: 0
      - serializedVersion: 2
        time: 0.1
        value: 0.9980004
        inSlope: -0.052075986
        outSlope: -0.052075986
        tangentMode: 0
      - serializedVersion: 2
        time: 0.11666667
        value: 0.9970735
        inSlope: -0.05466699
        outSlope: -0.05466699
        tangentMode: 0
      - serializedVersion: 2
        time: 0.13333334
        value: 0.99617815
        inSlope: -0.04712104
        outSlope: -0.04712104
        tangentMode: 0
      - serializedVersion: 2
        time: 0.15
        value: 0.99550277
        inSlope: -0.028139953
        outSlope: -0.028139953
        tangentMode: 0
      - serializedVersion: 2
        time: 0.16666667
        value: 0.99524015
        inSlope: -0.005816818
        outSlope: -0.005816818
        tangentMode: 0
      - serializedVersion: 2
        time: 0.18333334
        value: 0.9953089
        inSlope: 0.007878543
        outSlope: 0.007878543
        tangentMode: 0
      - serializedVersion: 2
        time: 0.2
        value: 0.99550277
        inSlope: 0.014750363
        outSlope: 0.014750363
        tangentMode: 0
      - serializedVersion: 2
        time: 0.21666667
        value: 0.99580055
        inSlope: 0.020261409
        outSlope: 0.020261409
        tangentMode: 0
      - serializedVersion: 2
        time: 0.23333333
        value: 0.99617815
        inSlope: 0.024302604
        outSlope: 0.024302604
        tangentMode: 0
      - serializedVersion: 2
        time: 0.25
        value: 0.99661064
        inSlope: 0.02685963
        outSlope: 0.02685963
        tangentMode: 0
      - serializedVersion: 2
        time: 0.26666668
        value: 0.9970735
        inSlope: 0.027986147
        outSlope: 0.027986147
        tangentMode: 0
      - serializedVersion: 2
        time: 0.28333336
        value: 0.9975435
        inSlope: 0.027807333
        outSlope: 0.027807333
        tangentMode: 0
      - serializedVersion: 2
        time: 0.30000004
        value: 0.9980004
        inSlope: 0.026498415
        outSlope: 0.026498415
        tangentMode: 0
      - serializedVersion: 2
        time: 0.31666672
        value: 0.9984268
        inSlope: 0.024268609
        outSlope: 0.024268609
        tangentMode: 0
      - serializedVersion: 2
        time: 0.3333334
        value: 0.99880934
        inSlope: 0.021357518
        outSlope: 0.021357518
        tangentMode: 0
      - serializedVersion: 2
        time: 0.35000008
        value: 0.9991387
        inSlope: 0.018015489
        outSlope: 0.018015489
        tangentMode: 0
      - serializedVersion: 2
        time: 0.36666676
        value: 0.99940985
        inSlope: 0.014494646
        outSlope: 0.014494646
        tangentMode: 0
      - serializedVersion: 2
        time: 0.38333344
        value: 0.99962187
        inSlope: 0.011036387
        outSlope: 0.011036387
        tangentMode: 0
      - serializedVersion: 2
        time: 0.40000013
        value: 0.99977773
        inSlope: 0.00785529
        outSlope: 0.00785529
        tangentMode: 0
      - serializedVersion: 2
        time: 0.4166668
        value: 0.9998837
        inSlope: 0.005123015
        outSlope: 0.005123015
        tangentMode: 0
      - serializedVersion: 2
        time: 0.4333335
        value: 0.9999485
        inSlope: 0.0029611564
        outSlope: 0.0029611564
        tangentMode: 0
      - serializedVersion: 2
        time: 0.45000017
        value: 0.9999824
        inSlope: 0.0014322984
        outSlope: 0.0014322984
        tangentMode: 0
      - serializedVersion: 2
        time: 0.46666685
        value: 0.99999624
        inSlope: 0.0005203481
        outSlope: 0.0005203481
        tangentMode: 0
      - serializedVersion: 2
        time: 0.48333353
        value: 0.99999976
        inSlope: 0.0001126527
        outSlope: 0.0001126527
        tangentMode: 0
      - serializedVersion: 2
        time: 0.5000002
        value: 1
        inSlope: 0.000007152564
        outSlope: 0.000007152564
        tangentMode: 0
      - serializedVersion: 2
        time: 0.5166668
        value: 1
        inSlope: 0
        outSlope: 0
        tangentMode: 0
      - serializedVersion: 2
        time: 0.5333335
        value: 1
        inSlope: 0
        outSlope: 0
        tangentMode: 0
      - serializedVersion: 2
        time: 0.55000013
        value: 1
        inSlope: 0
        outSlope: 0
        tangentMode: 0
      - serializedVersion: 2
        time: 0.5666668
        value: 1
        inSlope: 0
        outSlope: 0
        tangentMode: 0
      - serializedVersion: 2
        time: 0.58333343
        value: 1
        inSlope: 0
        outSlope: 0
        tangentMode: 0
      - serializedVersion: 2
        time: 0.6000001
        value: 1
        inSlope: 0
        outSlope: 0
        tangentMode: 0
      - serializedVersion: 2
        time: 0.61666673
        value: 1
        inSlope: 0
        outSlope: 0
        tangentMode: 0
      - serializedVersion: 2
        time: 0.6333334
        value: 1
        inSlope: 0
        outSlope: 0
        tangentMode: 0
      - serializedVersion: 2
        time: 0.65000004
        value: 1
        inSlope: 0
        outSlope: 0
        tangentMode: 0
      - serializedVersion: 2
        time: 0.6666667
        value: 1
        inSlope: 0
        outSlope: 0
        tangentMode: 0
      - serializedVersion: 2
        time: 0.68333334
        value: 1
        inSlope: 0
        outSlope: 0
        tangentMode: 0
      - serializedVersion: 2
        time: 0.7
        value: 1
        inSlope: 0
        outSlope: 0
        tangentMode: 0
      - serializedVersion: 2
        time: 0.71666664
        value: 1
        inSlope: 0
        outSlope: 0
        tangentMode: 0
      - serializedVersion: 2
        time: 0.7333333
        value: 1
        inSlope: 0
        outSlope: 0
        tangentMode: 0
      - serializedVersion: 2
        time: 0.74999994
        value: 1
        inSlope: 0
        outSlope: 0
        tangentMode: 0
      - serializedVersion: 2
        time: 0.7666666
        value: 1
        inSlope: 0
        outSlope: 0
        tangentMode: 0
      - serializedVersion: 2
        time: 0.78333324
        value: 1
        inSlope: 0
        outSlope: 0
        tangentMode: 0
      - serializedVersion: 2
        time: 0.7999999
        value: 1
        inSlope: 0
        outSlope: 0
        tangentMode: 0
      - serializedVersion: 2
        time: 0.81666654
        value: 1
        inSlope: 0
        outSlope: 0
        tangentMode: 0
      - serializedVersion: 2
        time: 0.8333332
        value: 1
        inSlope: 0
        outSlope: 0
        tangentMode: 0
      - serializedVersion: 2
        time: 0.84999985
        value: 1
        inSlope: 0
        outSlope: 0
        tangentMode: 0
      - serializedVersion: 2
        time: 0.8666665
        value: 1
        inSlope: 0
        outSlope: 0
        tangentMode: 0
      - serializedVersion: 2
        time: 0.88333315
        value: 1
        inSlope: 0
        outSlope: 0
        tangentMode: 0
      - serializedVersion: 2
        time: 0.8999998
        value: 1
        inSlope: 0
        outSlope: 0
        tangentMode: 0
      - serializedVersion: 2
        time: 0.91666645
        value: 1
        inSlope: 0
        outSlope: 0
        tangentMode: 0
      - serializedVersion: 2
        time: 0.9333331
        value: 1
        inSlope: 0
        outSlope: 0
        tangentMode: 0
      - serializedVersion: 2
        time: 0.94999975
        value: 1
        inSlope: 0
        outSlope: 0
        tangentMode: 0
      - serializedVersion: 2
        time: 0.9666664
        value: 1
        inSlope: 0
        outSlope: 0
        tangentMode: 0
      - serializedVersion: 2
        time: 0.98333305
        value: 1
        inSlope: 0
        outSlope: 0
        tangentMode: 0
      - serializedVersion: 2
        time: 1
        value: 1
        inSlope: 0
        outSlope: 0
        tangentMode: 0
      m_PreInfinity: 2
      m_PostInfinity: 2
      m_RotationOrder: 4
    attribute: m_LocalRotation.w
    path: 
    classID: 4
    script: {fileID: 0}
  m_EulerEditorCurves:
  - curve:
      serializedVersion: 2
      m_Curve:
      - serializedVersion: 2
        time: 0
        value: 0
        inSlope: 0
        outSlope: 0
        tangentMode: 136
      - serializedVersion: 2
        time: 0.16666667
        value: -11.185
        inSlope: 0
        outSlope: 0
        tangentMode: 136
      - serializedVersion: 2
        time: 0.5
        value: 0
        inSlope: 0
        outSlope: 0
        tangentMode: 136
      - serializedVersion: 2
        time: 1
        value: 0
        inSlope: 0
        outSlope: 0
        tangentMode: 136
      m_PreInfinity: 2
      m_PostInfinity: 2
      m_RotationOrder: 4
    attribute: localEulerAnglesBaked.x
    path: 
    classID: 4
    script: {fileID: 0}
  - curve:
      serializedVersion: 2
      m_Curve:
      - serializedVersion: 2
        time: 0
        value: 0
        inSlope: 0
        outSlope: 0
        tangentMode: 136
      - serializedVersion: 2
        time: 0.16666667
        value: 0
        inSlope: 0
        outSlope: 0
        tangentMode: 136
      - serializedVersion: 2
        time: 0.5
        value: 0
        inSlope: 0
        outSlope: 0
        tangentMode: 136
      - serializedVersion: 2
        time: 1
        value: 0
        inSlope: 0
        outSlope: 0
        tangentMode: 136
      m_PreInfinity: 2
      m_PostInfinity: 2
      m_RotationOrder: 4
    attribute: localEulerAnglesBaked.y
    path: 
    classID: 4
    script: {fileID: 0}
  - curve:
      serializedVersion: 2
      m_Curve:
      - serializedVersion: 2
        time: 0
        value: 0
        inSlope: 0
        outSlope: 0
        tangentMode: 136
      - serializedVersion: 2
        time: 0.16666667
        value: 0
        inSlope: 0
        outSlope: 0
        tangentMode: 136
      - serializedVersion: 2
        time: 0.5
        value: 0
        inSlope: 0
        outSlope: 0
        tangentMode: 136
      - serializedVersion: 2
        time: 1
        value: 0
        inSlope: 0
        outSlope: 0
        tangentMode: 136
      m_PreInfinity: 2
      m_PostInfinity: 2
      m_RotationOrder: 4
    attribute: localEulerAnglesBaked.z
    path: 
    classID: 4
    script: {fileID: 0}
  m_HasGenericRootTransform: 0
  m_HasMotionFloatCurves: 0
  m_GenerateMotionCurves: 0
  m_Events: []
