%YAML 1.1
%TAG !u! tag:unity3d.com,2011:
--- !u!74 &7400000
AnimationClip:
  m_ObjectHideFlags: 0
  m_PrefabParentObject: {fileID: 0}
  m_PrefabInternal: {fileID: 0}
  m_Name: melee-0-attack
  serializedVersion: 6
  m_Legacy: 1
  m_Compressed: 0
  m_UseHighQualityCurve: 1
  m_RotationCurves:
  - curve:
      serializedVersion: 2
      m_Curve:
      - serializedVersion: 2
        time: 0
        value: {x: 0, y: -0.49702695, z: 0, w: 0.8677351}
        inSlope: {x: 0.65513945, y: -0.36914167, z: -0.9886585, w: -0.22675394}
        outSlope: {x: 0.65513945, y: -0.36914167, z: -0.9886585, w: -0.22675394}
        tangentMode: 0
      - serializedVersion: 2
        time: 0.016666668
        value: {x: 0.010918992, y: -0.5031793, z: -0.016477643, w: 0.86395586}
        inSlope: {x: 1.251306, y: -0.6446465, z: -1.8104042, w: -0.47457752}
        outSlope: {x: 1.251306, y: -0.6446465, z: -1.8104042, w: -0.47457752}
        tangentMode: 0
      - serializedVersion: 2
        time: 0.033333335
        value: {x: 0.0417102, y: -0.51851517, z: -0.06034681, w: 0.85191584}
        inSlope: {x: 2.3696804, y: -1.0222756, z: -3.1787179, w: -1.0298269}
        outSlope: {x: 2.3696804, y: -1.0222756, z: -3.1787179, w: -1.0298269}
        tangentMode: 0
      - serializedVersion: 2
        time: 0.050000004
        value: {x: 0.08990835, y: -0.53725517, z: -0.122434914, w: 0.8296283}
        inSlope: {x: 3.3177671, y: -1.0445325, z: -3.9825482, w: -1.6826838}
        outSlope: {x: 3.3177671, y: -1.0445325, z: -3.9825482, w: -1.6826838}
        tangentMode: 0
      - serializedVersion: 2
        time: 0.06666667
        value: {x: 0.15230244, y: -0.5533329, z: -0.19309843, w: 0.7958264}
        inSlope: {x: 4.0211864, y: -0.73852485, z: -4.2246842, w: -2.3420587}
        outSlope: {x: 4.0211864, y: -0.73852485, z: -4.2246842, w: -2.3420587}
        tangentMode: 0
      - serializedVersion: 2
        time: 0.083333336
        value: {x: 0.22394788, y: -0.56187266, z: -0.2632577, w: 0.7515597}
        inSlope: {x: 4.37662, y: -0.21568719, z: -3.9746327, w: -2.8557053}
        outSlope: {x: 4.37662, y: -0.21568719, z: -3.9746327, w: -2.8557053}
        tangentMode: 0
      - serializedVersion: 2
        time: 0.1
        value: {x: 0.29818976, y: -0.5605225, z: -0.32558617, w: 0.7006362}
        inSlope: {x: 4.3062572, y: 0.34911814, z: -3.3641958, w: -3.0752192}
        outSlope: {x: 4.3062572, y: 0.34911814, z: -3.3641958, w: -3.0752192}
        tangentMode: 0
      - serializedVersion: 2
        time: 0.11666667
        value: {x: 0.36748978, y: -0.5502354, z: -0.37539756, w: 0.6490524}
        inSlope: {x: 3.7897131, y: 0.7612072, z: -2.555908, w: -2.9029312}
        outSlope: {x: 3.7897131, y: 0.7612072, z: -2.555908, w: -2.9029312}
        tangentMode: 0
      - serializedVersion: 2
        time: 0.13333334
        value: {x: 0.42451355, y: -0.5351489, z: -0.4107831, w: 0.6038718}
        inSlope: {x: 2.8603446, y: 0.8619814, z: -1.6926837, w: -2.3072126}
        outSlope: {x: 2.8603446, y: 0.8619814, z: -1.6926837, w: -2.3072126}
        tangentMode: 0
      - serializedVersion: 2
        time: 0.15
        value: {x: 0.46283463, y: -0.5215027, z: -0.43182036, w: 0.5721453}
        inSlope: {x: 1.5694733, y: 0.58096653, z: -0.8452589, w: -1.30767}
        outSlope: {x: 1.5694733, y: 0.58096653, z: -0.8452589, w: -1.30767}
        tangentMode: 0
      - serializedVersion: 2
        time: 0.16666667
        value: {x: 0.47682932, y: -0.51578337, z: -0.4389584, w: 0.5602828}
        inSlope: {x: 0.41984084, y: 0.17157914, z: -0.21414132, w: -0.35587373}
        outSlope: {x: 0.41984084, y: 0.17157914, z: -0.21414132, w: -0.35587373}
        tangentMode: 0
      - serializedVersion: 2
        time: 0.18333334
        value: {x: 0.47682932, y: -0.51578337, z: -0.4389584, w: 0.5602828}
        inSlope: {x: 0, y: 0, z: 0, w: 0}
        outSlope: {x: 0, y: 0, z: 0, w: 0}
        tangentMode: 0
      - serializedVersion: 2
        time: 0.2
        value: {x: 0.47682932, y: -0.51578337, z: -0.4389584, w: 0.5602828}
        inSlope: {x: 0, y: 0, z: 0, w: 0}
        outSlope: {x: 0, y: 0, z: 0, w: 0}
        tangentMode: 0
      - serializedVersion: 2
        time: 0.21666667
        value: {x: 0.47682932, y: -0.51578337, z: -0.4389584, w: 0.5602828}
        inSlope: {x: 0, y: 0, z: 0, w: 0}
        outSlope: {x: 0, y: 0, z: 0, w: 0}
        tangentMode: 0
      - serializedVersion: 2
        time: 0.23333333
        value: {x: 0.47682932, y: -0.51578337, z: -0.4389584, w: 0.5602828}
        inSlope: {x: 0, y: 0, z: 0, w: 0}
        outSlope: {x: 0, y: 0, z: 0, w: 0}
        tangentMode: 0
      - serializedVersion: 2
        time: 0.25
        value: {x: 0.47682932, y: -0.51578337, z: -0.4389584, w: 0.5602828}
        inSlope: {x: 0, y: 0, z: 0, w: 0}
        outSlope: {x: 0, y: 0, z: 0, w: 0}
        tangentMode: 0
      - serializedVersion: 2
        time: 0.26666668
        value: {x: 0.47682932, y: -0.51578337, z: -0.4389584, w: 0.5602828}
        inSlope: {x: 0, y: 0, z: 0, w: 0}
        outSlope: {x: 0, y: 0, z: 0, w: 0}
        tangentMode: 0
      - serializedVersion: 2
        time: 0.28333336
        value: {x: 0.47682932, y: -0.51578337, z: -0.4389584, w: 0.5602828}
        inSlope: {x: 0, y: 0, z: 0, w: 0}
        outSlope: {x: 0, y: 0, z: 0, w: 0}
        tangentMode: 0
      - serializedVersion: 2
        time: 0.30000004
        value: {x: 0.47682932, y: -0.51578337, z: -0.4389584, w: 0.5602828}
        inSlope: {x: 0, y: 0, z: 0, w: 0}
        outSlope: {x: 0, y: 0, z: 0, w: 0}
        tangentMode: 0
      - serializedVersion: 2
        time: 0.31666672
        value: {x: 0.47682932, y: -0.51578337, z: -0.4389584, w: 0.5602828}
        inSlope: {x: 0, y: 0, z: 0, w: 0}
        outSlope: {x: 0, y: 0, z: 0, w: 0}
        tangentMode: 0
      - serializedVersion: 2
        time: 0.3333334
        value: {x: 0.47682932, y: -0.51578337, z: -0.4389584, w: 0.5602828}
        inSlope: {x: 0, y: 0, z: 0, w: 0}
        outSlope: {x: 0, y: 0, z: 0, w: 0}
        tangentMode: 0
      - serializedVersion: 2
        time: 0.35000008
        value: {x: 0.47682932, y: -0.51578337, z: -0.4389584, w: 0.5602828}
        inSlope: {x: 0, y: 0, z: 0, w: 0}
        outSlope: {x: 0, y: 0, z: 0, w: 0}
        tangentMode: 0
      - serializedVersion: 2
        time: 0.36666676
        value: {x: 0.47682932, y: -0.51578337, z: -0.4389584, w: 0.5602828}
        inSlope: {x: 0, y: 0, z: 0, w: 0}
        outSlope: {x: 0, y: 0, z: 0, w: 0}
        tangentMode: 0
      - serializedVersion: 2
        time: 0.38333344
        value: {x: 0.47682932, y: -0.51578337, z: -0.4389584, w: 0.5602828}
        inSlope: {x: 0, y: 0, z: 0, w: 0}
        outSlope: {x: 0, y: 0, z: 0, w: 0}
        tangentMode: 0
      - serializedVersion: 2
        time: 0.40000013
        value: {x: 0.47682932, y: -0.51578337, z: -0.4389584, w: 0.5602828}
        inSlope: {x: 0, y: 0, z: 0, w: 0}
        outSlope: {x: 0, y: 0, z: 0, w: 0}
        tangentMode: 0
      - serializedVersion: 2
        time: 0.4166668
        value: {x: 0.47682932, y: -0.51578337, z: -0.4389584, w: 0.5602828}
        inSlope: {x: 0, y: 0, z: 0, w: 0}
        outSlope: {x: 0, y: 0, z: 0, w: 0}
        tangentMode: 0
      - serializedVersion: 2
        time: 0.4333335
        value: {x: 0.47682932, y: -0.51578337, z: -0.4389584, w: 0.5602828}
        inSlope: {x: 0, y: 0, z: 0, w: 0}
        outSlope: {x: 0, y: 0, z: 0, w: 0}
        tangentMode: 0
      - serializedVersion: 2
        time: 0.45000017
        value: {x: 0.47682932, y: -0.51578337, z: -0.4389584, w: 0.5602828}
        inSlope: {x: 0, y: 0, z: 0, w: 0}
        outSlope: {x: 0, y: 0, z: 0, w: 0}
        tangentMode: 0
      - serializedVersion: 2
        time: 0.46666685
        value: {x: 0.47682932, y: -0.51578337, z: -0.4389584, w: 0.5602828}
        inSlope: {x: 0, y: 0, z: 0, w: 0}
        outSlope: {x: 0, y: 0, z: 0, w: 0}
        tangentMode: 0
      - serializedVersion: 2
        time: 0.48333353
        value: {x: 0.47682932, y: -0.51578337, z: -0.4389584, w: 0.5602828}
        inSlope: {x: 0, y: 0, z: 0, w: 0}
        outSlope: {x: 0, y: 0, z: 0, w: 0}
        tangentMode: 0
      - serializedVersion: 2
        time: 0.5000002
        value: {x: 0.47682932, y: -0.51578337, z: -0.4389584, w: 0.5602828}
        inSlope: {x: 0, y: 0, z: 0, w: 0}
        outSlope: {x: 0, y: 0, z: 0, w: 0}
        tangentMode: 0
      - serializedVersion: 2
        time: 0.5166668
        value: {x: 0.47682932, y: -0.51578337, z: -0.4389584, w: 0.5602828}
        inSlope: {x: 0, y: 0, z: 0, w: 0}
        outSlope: {x: 0, y: 0, z: 0, w: 0}
        tangentMode: 0
      - serializedVersion: 2
        time: 0.5333335
        value: {x: 0.47682932, y: -0.51578337, z: -0.4389584, w: 0.5602828}
        inSlope: {x: 0, y: 0, z: 0, w: 0}
        outSlope: {x: 0, y: 0, z: 0, w: 0}
        tangentMode: 0
      - serializedVersion: 2
        time: 0.55000013
        value: {x: 0.47682932, y: -0.51578337, z: -0.4389584, w: 0.5602828}
        inSlope: {x: 0, y: 0, z: 0, w: 0}
        outSlope: {x: 0, y: 0, z: 0, w: 0}
        tangentMode: 0
      - serializedVersion: 2
        time: 0.5666668
        value: {x: 0.47682932, y: -0.51578337, z: -0.4389584, w: 0.5602828}
        inSlope: {x: 0, y: 0, z: 0, w: 0}
        outSlope: {x: 0, y: 0, z: 0, w: 0}
        tangentMode: 0
      - serializedVersion: 2
        time: 0.58333343
        value: {x: 0.47682932, y: -0.51578337, z: -0.4389584, w: 0.5602828}
        inSlope: {x: 0, y: 0, z: 0, w: 0}
        outSlope: {x: 0, y: 0, z: 0, w: 0}
        tangentMode: 0
      - serializedVersion: 2
        time: 0.6000001
        value: {x: 0.47682932, y: -0.51578337, z: -0.4389584, w: 0.5602828}
        inSlope: {x: 0, y: 0, z: 0, w: 0}
        outSlope: {x: 0, y: 0, z: 0, w: 0}
        tangentMode: 0
      - serializedVersion: 2
        time: 0.61666673
        value: {x: 0.47682932, y: -0.51578337, z: -0.4389584, w: 0.5602828}
        inSlope: {x: 0, y: 0, z: 0, w: 0}
        outSlope: {x: 0, y: 0, z: 0, w: 0}
        tangentMode: 0
      - serializedVersion: 2
        time: 0.6333334
        value: {x: 0.47682932, y: -0.51578337, z: -0.4389584, w: 0.5602828}
        inSlope: {x: 0, y: 0, z: 0, w: 0}
        outSlope: {x: 0, y: 0, z: 0, w: 0}
        tangentMode: 0
      - serializedVersion: 2
        time: 0.65000004
        value: {x: 0.47682932, y: -0.51578337, z: -0.4389584, w: 0.5602828}
        inSlope: {x: 0, y: 0, z: 0, w: 0}
        outSlope: {x: 0, y: 0, z: 0, w: 0}
        tangentMode: 0
      - serializedVersion: 2
        time: 0.6666667
        value: {x: 0.47682932, y: -0.51578337, z: -0.4389584, w: 0.5602828}
        inSlope: {x: 0, y: 0, z: 0, w: 0}
        outSlope: {x: 0, y: 0, z: 0, w: 0}
        tangentMode: 0
      - serializedVersion: 2
        time: 0.68333334
        value: {x: 0.47682932, y: -0.51578337, z: -0.4389584, w: 0.5602828}
        inSlope: {x: 0, y: 0, z: 0, w: 0}
        outSlope: {x: 0, y: 0, z: 0, w: 0}
        tangentMode: 0
      - serializedVersion: 2
        time: 0.7
        value: {x: 0.47682932, y: -0.51578337, z: -0.4389584, w: 0.5602828}
        inSlope: {x: 0, y: 0, z: 0, w: 0}
        outSlope: {x: 0, y: 0, z: 0, w: 0}
        tangentMode: 0
      - serializedVersion: 2
        time: 0.71666664
        value: {x: 0.47682932, y: -0.51578337, z: -0.4389584, w: 0.5602828}
        inSlope: {x: 0, y: 0, z: 0, w: 0}
        outSlope: {x: 0, y: 0, z: 0, w: 0}
        tangentMode: 0
      - serializedVersion: 2
        time: 0.7333333
        value: {x: 0.47682932, y: -0.51578337, z: -0.4389584, w: 0.5602828}
        inSlope: {x: 0, y: 0, z: 0, w: 0}
        outSlope: {x: 0, y: 0, z: 0, w: 0}
        tangentMode: 0
      - serializedVersion: 2
        time: 0.74999994
        value: {x: 0.47682932, y: -0.51578337, z: -0.4389584, w: 0.5602828}
        inSlope: {x: 0, y: 0, z: 0, w: 0}
        outSlope: {x: 0, y: 0, z: 0, w: 0}
        tangentMode: 0
      - serializedVersion: 2
        time: 0.7666666
        value: {x: 0.47682932, y: -0.51578337, z: -0.4389584, w: 0.5602828}
        inSlope: {x: 0, y: 0, z: 0, w: 0}
        outSlope: {x: 0, y: 0, z: 0, w: 0}
        tangentMode: 0
      - serializedVersion: 2
        time: 0.78333324
        value: {x: 0.47682932, y: -0.51578337, z: -0.4389584, w: 0.5602828}
        inSlope: {x: 0, y: 0, z: 0, w: 0}
        outSlope: {x: 0, y: 0, z: 0, w: 0}
        tangentMode: 0
      - serializedVersion: 2
        time: 0.7999999
        value: {x: 0.47682932, y: -0.51578337, z: -0.4389584, w: 0.5602828}
        inSlope: {x: 0, y: 0, z: 0, w: 0}
        outSlope: {x: 0, y: 0, z: 0, w: 0}
        tangentMode: 0
      - serializedVersion: 2
        time: 0.81666654
        value: {x: 0.47682932, y: -0.51578337, z: -0.4389584, w: 0.5602828}
        inSlope: {x: 0, y: 0, z: 0, w: 0}
        outSlope: {x: 0, y: 0, z: 0, w: 0}
        tangentMode: 0
      - serializedVersion: 2
        time: 0.8333332
        value: {x: 0.47682932, y: -0.51578337, z: -0.4389584, w: 0.5602828}
        inSlope: {x: 0, y: 0, z: 0, w: 0}
        outSlope: {x: 0, y: 0, z: 0, w: 0}
        tangentMode: 0
      - serializedVersion: 2
        time: 0.84999985
        value: {x: 0.47682932, y: -0.51578337, z: -0.4389584, w: 0.5602828}
        inSlope: {x: 0, y: 0, z: 0, w: 0}
        outSlope: {x: 0, y: 0, z: 0, w: 0}
        tangentMode: 0
      - serializedVersion: 2
        time: 0.8666665
        value: {x: 0.47682932, y: -0.51578337, z: -0.4389584, w: 0.5602828}
        inSlope: {x: 0, y: 0, z: 0, w: 0}
        outSlope: {x: 0, y: 0, z: 0, w: 0}
        tangentMode: 0
      - serializedVersion: 2
        time: 0.88333315
        value: {x: 0.47682932, y: -0.51578337, z: -0.4389584, w: 0.5602828}
        inSlope: {x: 0, y: 0, z: 0, w: 0}
        outSlope: {x: 0, y: 0, z: 0, w: 0}
        tangentMode: 0
      - serializedVersion: 2
        time: 0.8999998
        value: {x: 0.47682932, y: -0.51578337, z: -0.4389584, w: 0.5602828}
        inSlope: {x: 0, y: 0, z: 0, w: 0}
        outSlope: {x: 0, y: 0, z: 0, w: 0}
        tangentMode: 0
      - serializedVersion: 2
        time: 0.91666645
        value: {x: 0.47682932, y: -0.51578337, z: -0.4389584, w: 0.5602828}
        inSlope: {x: 0, y: 0, z: 0, w: 0}
        outSlope: {x: 0, y: 0, z: 0, w: 0}
        tangentMode: 0
      - serializedVersion: 2
        time: 0.9333331
        value: {x: 0.47682932, y: -0.51578337, z: -0.4389584, w: 0.5602828}
        inSlope: {x: 0, y: 0, z: 0, w: 0}
        outSlope: {x: 0, y: 0, z: 0, w: 0}
        tangentMode: 0
      - serializedVersion: 2
        time: 0.94999975
        value: {x: 0.47682932, y: -0.51578337, z: -0.4389584, w: 0.5602828}
        inSlope: {x: 0, y: 0, z: 0, w: 0}
        outSlope: {x: 0, y: 0, z: 0, w: 0}
        tangentMode: 0
      - serializedVersion: 2
        time: 0.9666664
        value: {x: 0.47682932, y: -0.51578337, z: -0.4389584, w: 0.5602828}
        inSlope: {x: 0, y: 0, z: 0, w: 0}
        outSlope: {x: 0, y: 0, z: 0, w: 0}
        tangentMode: 0
      - serializedVersion: 2
        time: 0.98333305
        value: {x: 0.47682932, y: -0.51578337, z: -0.4389584, w: 0.5602828}
        inSlope: {x: 0, y: 0, z: 0, w: 0}
        outSlope: {x: 0, y: 0, z: 0, w: 0}
        tangentMode: 0
      - serializedVersion: 2
        time: 1
        value: {x: 0.47682932, y: -0.51578337, z: -0.4389584, w: 0.5602828}
        inSlope: {x: 0, y: 0, z: 0, w: 0}
        outSlope: {x: 0, y: 0, z: 0, w: 0}
        tangentMode: 0
      m_PreInfinity: 2
      m_PostInfinity: 2
      m_RotationOrder: 4
    path: Right Hand
  m_CompressedRotationCurves: []
  m_EulerCurves: []
  m_PositionCurves:
  - curve:
      serializedVersion: 2
      m_Curve:
      - serializedVersion: 2
        time: 0
        value: {x: 0.072, y: 0.193, z: 0}
        inSlope: {x: 0, y: 0, z: 0}
        outSlope: {x: 0, y: 0, z: 0}
        tangentMode: 0
      - serializedVersion: 2
        time: 0.16666667
        value: {x: 0.106, y: 0.031, z: 0.196}
        inSlope: {x: 0, y: 0, z: 0}
        outSlope: {x: 0, y: 0, z: 0}
        tangentMode: 0
      - serializedVersion: 2
        time: 1
        value: {x: 0.106, y: 0.031, z: 0.196}
        inSlope: {x: 0, y: 0, z: 0}
        outSlope: {x: 0, y: 0, z: 0}
        tangentMode: 0
      m_PreInfinity: 2
      m_PostInfinity: 2
      m_RotationOrder: 4
    path: Right Hand
  m_ScaleCurves: []
  m_FloatCurves: []
  m_PPtrCurves: []
  m_SampleRate: 60
  m_WrapMode: 0
  m_Bounds:
    m_Center: {x: 0, y: 0, z: 0}
    m_Extent: {x: 0, y: 0, z: 0}
  m_ClipBindingConstant:
    genericBindings: []
    pptrCurveMapping: []
  m_AnimationClipSettings:
    serializedVersion: 2
    m_AdditiveReferencePoseClip: {fileID: 0}
    m_AdditiveReferencePoseTime: 0
    m_StartTime: 0
    m_StopTime: 1
    m_OrientationOffsetY: 0
    m_Level: 0
    m_CycleOffset: 0
    m_HasAdditiveReferencePose: 0
    m_LoopTime: 1
    m_LoopBlend: 0
    m_LoopBlendOrientation: 0
    m_LoopBlendPositionY: 0
    m_LoopBlendPositionXZ: 0
    m_KeepOriginalOrientation: 0
    m_KeepOriginalPositionY: 1
    m_KeepOriginalPositionXZ: 0
    m_HeightFromFeet: 0
    m_Mirror: 0
  m_EditorCurves:
  - curve:
      serializedVersion: 2
      m_Curve:
      - serializedVersion: 2
        time: 0
        value: 0.072
        inSlope: 0
        outSlope: 0
        tangentMode: 136
      - serializedVersion: 2
        time: 0.16666667
        value: 0.106
        inSlope: 0
        outSlope: 0
        tangentMode: 136
      - serializedVersion: 2
        time: 1
        value: 0.106
        inSlope: 0
        outSlope: 0
        tangentMode: 136
      m_PreInfinity: 2
      m_PostInfinity: 2
      m_RotationOrder: 4
    attribute: m_LocalPosition.x
    path: Right Hand
    classID: 4
    script: {fileID: 0}
  - curve:
      serializedVersion: 2
      m_Curve:
      - serializedVersion: 2
        time: 0
        value: 0.193
        inSlope: 0
        outSlope: 0
        tangentMode: 136
      - serializedVersion: 2
        time: 0.16666667
        value: 0.031
        inSlope: 0
        outSlope: 0
        tangentMode: 136
      - serializedVersion: 2
        time: 1
        value: 0.031
        inSlope: 0
        outSlope: 0
        tangentMode: 136
      m_PreInfinity: 2
      m_PostInfinity: 2
      m_RotationOrder: 4
    attribute: m_LocalPosition.y
    path: Right Hand
    classID: 4
    script: {fileID: 0}
  - curve:
      serializedVersion: 2
      m_Curve:
      - serializedVersion: 2
        time: 0
        value: 0
        inSlope: 0
        outSlope: 0
        tangentMode: 136
      - serializedVersion: 2
        time: 0.16666667
        value: 0.196
        inSlope: 0
        outSlope: 0
        tangentMode: 136
      - serializedVersion: 2
        time: 1
        value: 0.196
        inSlope: 0
        outSlope: 0
        tangentMode: 136
      m_PreInfinity: 2
      m_PostInfinity: 2
      m_RotationOrder: 4
    attribute: m_LocalPosition.z
    path: Right Hand
    classID: 4
    script: {fileID: 0}
  - curve:
      serializedVersion: 2
      m_Curve:
      - serializedVersion: 2
        time: 0
        value: 0
        inSlope: 0.65513945
        outSlope: 0.65513945
        tangentMode: 0
      - serializedVersion: 2
        time: 0.016666668
        value: 0.010918992
        inSlope: 1.251306
        outSlope: 1.251306
        tangentMode: 0
      - serializedVersion: 2
        time: 0.033333335
        value: 0.0417102
        inSlope: 2.3696804
        outSlope: 2.3696804
        tangentMode: 0
      - serializedVersion: 2
        time: 0.050000004
        value: 0.08990835
        inSlope: 3.3177671
        outSlope: 3.3177671
        tangentMode: 0
      - serializedVersion: 2
        time: 0.06666667
        value: 0.15230244
        inSlope: 4.0211864
        outSlope: 4.0211864
        tangentMode: 0
      - serializedVersion: 2
        time: 0.083333336
        value: 0.22394788
        inSlope: 4.37662
        outSlope: 4.37662
        tangentMode: 0
      - serializedVersion: 2
        time: 0.1
        value: 0.29818976
        inSlope: 4.3062572
        outSlope: 4.3062572
        tangentMode: 0
      - serializedVersion: 2
        time: 0.11666667
        value: 0.36748978
        inSlope: 3.7897131
        outSlope: 3.7897131
        tangentMode: 0
      - serializedVersion: 2
        time: 0.13333334
        value: 0.42451355
        inSlope: 2.8603446
        outSlope: 2.8603446
        tangentMode: 0
      - serializedVersion: 2
        time: 0.15
        value: 0.46283463
        inSlope: 1.5694733
        outSlope: 1.5694733
        tangentMode: 0
      - serializedVersion: 2
        time: 0.16666667
        value: 0.47682932
        inSlope: 0.41984084
        outSlope: 0.41984084
        tangentMode: 0
      - serializedVersion: 2
        time: 0.18333334
        value: 0.47682932
        inSlope: 0
        outSlope: 0
        tangentMode: 0
      - serializedVersion: 2
        time: 0.2
        value: 0.47682932
        inSlope: 0
        outSlope: 0
        tangentMode: 0
      - serializedVersion: 2
        time: 0.21666667
        value: 0.47682932
        inSlope: 0
        outSlope: 0
        tangentMode: 0
      - serializedVersion: 2
        time: 0.23333333
        value: 0.47682932
        inSlope: 0
        outSlope: 0
        tangentMode: 0
      - serializedVersion: 2
        time: 0.25
        value: 0.47682932
        inSlope: 0
        outSlope: 0
        tangentMode: 0
      - serializedVersion: 2
        time: 0.26666668
        value: 0.47682932
        inSlope: 0
        outSlope: 0
        tangentMode: 0
      - serializedVersion: 2
        time: 0.28333336
        value: 0.47682932
        inSlope: 0
        outSlope: 0
        tangentMode: 0
      - serializedVersion: 2
        time: 0.30000004
        value: 0.47682932
        inSlope: 0
        outSlope: 0
        tangentMode: 0
      - serializedVersion: 2
        time: 0.31666672
        value: 0.47682932
        inSlope: 0
        outSlope: 0
        tangentMode: 0
      - serializedVersion: 2
        time: 0.3333334
        value: 0.47682932
        inSlope: 0
        outSlope: 0
        tangentMode: 0
      - serializedVersion: 2
        time: 0.35000008
        value: 0.47682932
        inSlope: 0
        outSlope: 0
        tangentMode: 0
      - serializedVersion: 2
        time: 0.36666676
        value: 0.47682932
        inSlope: 0
        outSlope: 0
        tangentMode: 0
      - serializedVersion: 2
        time: 0.38333344
        value: 0.47682932
        inSlope: 0
        outSlope: 0
        tangentMode: 0
      - serializedVersion: 2
        time: 0.40000013
        value: 0.47682932
        inSlope: 0
        outSlope: 0
        tangentMode: 0
      - serializedVersion: 2
        time: 0.4166668
        value: 0.47682932
        inSlope: 0
        outSlope: 0
        tangentMode: 0
      - serializedVersion: 2
        time: 0.4333335
        value: 0.47682932
        inSlope: 0
        outSlope: 0
        tangentMode: 0
      - serializedVersion: 2
        time: 0.45000017
        value: 0.47682932
        inSlope: 0
        outSlope: 0
        tangentMode: 0
      - serializedVersion: 2
        time: 0.46666685
        value: 0.47682932
        inSlope: 0
        outSlope: 0
        tangentMode: 0
      - serializedVersion: 2
        time: 0.48333353
        value: 0.47682932
        inSlope: 0
        outSlope: 0
        tangentMode: 0
      - serializedVersion: 2
        time: 0.5000002
        value: 0.47682932
        inSlope: 0
        outSlope: 0
        tangentMode: 0
      - serializedVersion: 2
        time: 0.5166668
        value: 0.47682932
        inSlope: 0
        outSlope: 0
        tangentMode: 0
      - serializedVersion: 2
        time: 0.5333335
        value: 0.47682932
        inSlope: 0
        outSlope: 0
        tangentMode: 0
      - serializedVersion: 2
        time: 0.55000013
        value: 0.47682932
        inSlope: 0
        outSlope: 0
        tangentMode: 0
      - serializedVersion: 2
        time: 0.5666668
        value: 0.47682932
        inSlope: 0
        outSlope: 0
        tangentMode: 0
      - serializedVersion: 2
        time: 0.58333343
        value: 0.47682932
        inSlope: 0
        outSlope: 0
        tangentMode: 0
      - serializedVersion: 2
        time: 0.6000001
        value: 0.47682932
        inSlope: 0
        outSlope: 0
        tangentMode: 0
      - serializedVersion: 2
        time: 0.61666673
        value: 0.47682932
        inSlope: 0
        outSlope: 0
        tangentMode: 0
      - serializedVersion: 2
        time: 0.6333334
        value: 0.47682932
        inSlope: 0
        outSlope: 0
        tangentMode: 0
      - serializedVersion: 2
        time: 0.65000004
        value: 0.47682932
        inSlope: 0
        outSlope: 0
        tangentMode: 0
      - serializedVersion: 2
        time: 0.6666667
        value: 0.47682932
        inSlope: 0
        outSlope: 0
        tangentMode: 0
      - serializedVersion: 2
        time: 0.68333334
        value: 0.47682932
        inSlope: 0
        outSlope: 0
        tangentMode: 0
      - serializedVersion: 2
        time: 0.7
        value: 0.47682932
        inSlope: 0
        outSlope: 0
        tangentMode: 0
      - serializedVersion: 2
        time: 0.71666664
        value: 0.47682932
        inSlope: 0
        outSlope: 0
        tangentMode: 0
      - serializedVersion: 2
        time: 0.7333333
        value: 0.47682932
        inSlope: 0
        outSlope: 0
        tangentMode: 0
      - serializedVersion: 2
        time: 0.74999994
        value: 0.47682932
        inSlope: 0
        outSlope: 0
        tangentMode: 0
      - serializedVersion: 2
        time: 0.7666666
        value: 0.47682932
        inSlope: 0
        outSlope: 0
        tangentMode: 0
      - serializedVersion: 2
        time: 0.78333324
        value: 0.47682932
        inSlope: 0
        outSlope: 0
        tangentMode: 0
      - serializedVersion: 2
        time: 0.7999999
        value: 0.47682932
        inSlope: 0
        outSlope: 0
        tangentMode: 0
      - serializedVersion: 2
        time: 0.81666654
        value: 0.47682932
        inSlope: 0
        outSlope: 0
        tangentMode: 0
      - serializedVersion: 2
        time: 0.8333332
        value: 0.47682932
        inSlope: 0
        outSlope: 0
        tangentMode: 0
      - serializedVersion: 2
        time: 0.84999985
        value: 0.47682932
        inSlope: 0
        outSlope: 0
        tangentMode: 0
      - serializedVersion: 2
        time: 0.8666665
        value: 0.47682932
        inSlope: 0
        outSlope: 0
        tangentMode: 0
      - serializedVersion: 2
        time: 0.88333315
        value: 0.47682932
        inSlope: 0
        outSlope: 0
        tangentMode: 0
      - serializedVersion: 2
        time: 0.8999998
        value: 0.47682932
        inSlope: 0
        outSlope: 0
        tangentMode: 0
      - serializedVersion: 2
        time: 0.91666645
        value: 0.47682932
        inSlope: 0
        outSlope: 0
        tangentMode: 0
      - serializedVersion: 2
        time: 0.9333331
        value: 0.47682932
        inSlope: 0
        outSlope: 0
        tangentMode: 0
      - serializedVersion: 2
        time: 0.94999975
        value: 0.47682932
        inSlope: 0
        outSlope: 0
        tangentMode: 0
      - serializedVersion: 2
        time: 0.9666664
        value: 0.47682932
        inSlope: 0
        outSlope: 0
        tangentMode: 0
      - serializedVersion: 2
        time: 0.98333305
        value: 0.47682932
        inSlope: 0
        outSlope: 0
        tangentMode: 0
      - serializedVersion: 2
        time: 1
        value: 0.47682932
        inSlope: 0
        outSlope: 0
        tangentMode: 0
      m_PreInfinity: 2
      m_PostInfinity: 2
      m_RotationOrder: 4
    attribute: m_LocalRotation.x
    path: Right Hand
    classID: 4
    script: {fileID: 0}
  - curve:
      serializedVersion: 2
      m_Curve:
      - serializedVersion: 2
        time: 0
        value: -0.49702695
        inSlope: -0.36914167
        outSlope: -0.36914167
        tangentMode: 0
      - serializedVersion: 2
        time: 0.016666668
        value: -0.5031793
        inSlope: -0.6446465
        outSlope: -0.6446465
        tangentMode: 0
      - serializedVersion: 2
        time: 0.033333335
        value: -0.51851517
        inSlope: -1.0222756
        outSlope: -1.0222756
        tangentMode: 0
      - serializedVersion: 2
        time: 0.050000004
        value: -0.53725517
        inSlope: -1.0445325
        outSlope: -1.0445325
        tangentMode: 0
      - serializedVersion: 2
        time: 0.06666667
        value: -0.5533329
        inSlope: -0.73852485
        outSlope: -0.73852485
        tangentMode: 0
      - serializedVersion: 2
        time: 0.083333336
        value: -0.56187266
        inSlope: -0.21568719
        outSlope: -0.21568719
        tangentMode: 0
      - serializedVersion: 2
        time: 0.1
        value: -0.5605225
        inSlope: 0.34911814
        outSlope: 0.34911814
        tangentMode: 0
      - serializedVersion: 2
        time: 0.11666667
        value: -0.5502354
        inSlope: 0.7612072
        outSlope: 0.7612072
        tangentMode: 0
      - serializedVersion: 2
        time: 0.13333334
        value: -0.5351489
        inSlope: 0.8619814
        outSlope: 0.8619814
        tangentMode: 0
      - serializedVersion: 2
        time: 0.15
        value: -0.5215027
        inSlope: 0.58096653
        outSlope: 0.58096653
        tangentMode: 0
      - serializedVersion: 2
        time: 0.16666667
        value: -0.51578337
        inSlope: 0.17157914
        outSlope: 0.17157914
        tangentMode: 0
      - serializedVersion: 2
        time: 0.18333334
        value: -0.51578337
        inSlope: 0
        outSlope: 0
        tangentMode: 0
      - serializedVersion: 2
        time: 0.2
        value: -0.51578337
        inSlope: 0
        outSlope: 0
        tangentMode: 0
      - serializedVersion: 2
        time: 0.21666667
        value: -0.51578337
        inSlope: 0
        outSlope: 0
        tangentMode: 0
      - serializedVersion: 2
        time: 0.23333333
        value: -0.51578337
        inSlope: 0
        outSlope: 0
        tangentMode: 0
      - serializedVersion: 2
        time: 0.25
        value: -0.51578337
        inSlope: 0
        outSlope: 0
        tangentMode: 0
      - serializedVersion: 2
        time: 0.26666668
        value: -0.51578337
        inSlope: 0
        outSlope: 0
        tangentMode: 0
      - serializedVersion: 2
        time: 0.28333336
        value: -0.51578337
        inSlope: 0
        outSlope: 0
        tangentMode: 0
      - serializedVersion: 2
        time: 0.30000004
        value: -0.51578337
        inSlope: 0
        outSlope: 0
        tangentMode: 0
      - serializedVersion: 2
        time: 0.31666672
        value: -0.51578337
        inSlope: 0
        outSlope: 0
        tangentMode: 0
      - serializedVersion: 2
        time: 0.3333334
        value: -0.51578337
        inSlope: 0
        outSlope: 0
        tangentMode: 0
      - serializedVersion: 2
        time: 0.35000008
        value: -0.51578337
        inSlope: 0
        outSlope: 0
        tangentMode: 0
      - serializedVersion: 2
        time: 0.36666676
        value: -0.51578337
        inSlope: 0
        outSlope: 0
        tangentMode: 0
      - serializedVersion: 2
        time: 0.38333344
        value: -0.51578337
        inSlope: 0
        outSlope: 0
        tangentMode: 0
      - serializedVersion: 2
        time: 0.40000013
        value: -0.51578337
        inSlope: 0
        outSlope: 0
        tangentMode: 0
      - serializedVersion: 2
        time: 0.4166668
        value: -0.51578337
        inSlope: 0
        outSlope: 0
        tangentMode: 0
      - serializedVersion: 2
        time: 0.4333335
        value: -0.51578337
        inSlope: 0
        outSlope: 0
        tangentMode: 0
      - serializedVersion: 2
        time: 0.45000017
        value: -0.51578337
        inSlope: 0
        outSlope: 0
        tangentMode: 0
      - serializedVersion: 2
        time: 0.46666685
        value: -0.51578337
        inSlope: 0
        outSlope: 0
        tangentMode: 0
      - serializedVersion: 2
        time: 0.48333353
        value: -0.51578337
        inSlope: 0
        outSlope: 0
        tangentMode: 0
      - serializedVersion: 2
        time: 0.5000002
        value: -0.51578337
        inSlope: 0
        outSlope: 0
        tangentMode: 0
      - serializedVersion: 2
        time: 0.5166668
        value: -0.51578337
        inSlope: 0
        outSlope: 0
        tangentMode: 0
      - serializedVersion: 2
        time: 0.5333335
        value: -0.51578337
        inSlope: 0
        outSlope: 0
        tangentMode: 0
      - serializedVersion: 2
        time: 0.55000013
        value: -0.51578337
        inSlope: 0
        outSlope: 0
        tangentMode: 0
      - serializedVersion: 2
        time: 0.5666668
        value: -0.51578337
        inSlope: 0
        outSlope: 0
        tangentMode: 0
      - serializedVersion: 2
        time: 0.58333343
        value: -0.51578337
        inSlope: 0
        outSlope: 0
        tangentMode: 0
      - serializedVersion: 2
        time: 0.6000001
        value: -0.51578337
        inSlope: 0
        outSlope: 0
        tangentMode: 0
      - serializedVersion: 2
        time: 0.61666673
        value: -0.51578337
        inSlope: 0
        outSlope: 0
        tangentMode: 0
      - serializedVersion: 2
        time: 0.6333334
        value: -0.51578337
        inSlope: 0
        outSlope: 0
        tangentMode: 0
      - serializedVersion: 2
        time: 0.65000004
        value: -0.51578337
        inSlope: 0
        outSlope: 0
        tangentMode: 0
      - serializedVersion: 2
        time: 0.6666667
        value: -0.51578337
        inSlope: 0
        outSlope: 0
        tangentMode: 0
      - serializedVersion: 2
        time: 0.68333334
        value: -0.51578337
        inSlope: 0
        outSlope: 0
        tangentMode: 0
      - serializedVersion: 2
        time: 0.7
        value: -0.51578337
        inSlope: 0
        outSlope: 0
        tangentMode: 0
      - serializedVersion: 2
        time: 0.71666664
        value: -0.51578337
        inSlope: 0
        outSlope: 0
        tangentMode: 0
      - serializedVersion: 2
        time: 0.7333333
        value: -0.51578337
        inSlope: 0
        outSlope: 0
        tangentMode: 0
      - serializedVersion: 2
        time: 0.74999994
        value: -0.51578337
        inSlope: 0
        outSlope: 0
        tangentMode: 0
      - serializedVersion: 2
        time: 0.7666666
        value: -0.51578337
        inSlope: 0
        outSlope: 0
        tangentMode: 0
      - serializedVersion: 2
        time: 0.78333324
        value: -0.51578337
        inSlope: 0
        outSlope: 0
        tangentMode: 0
      - serializedVersion: 2
        time: 0.7999999
        value: -0.51578337
        inSlope: 0
        outSlope: 0
        tangentMode: 0
      - serializedVersion: 2
        time: 0.81666654
        value: -0.51578337
        inSlope: 0
        outSlope: 0
        tangentMode: 0
      - serializedVersion: 2
        time: 0.8333332
        value: -0.51578337
        inSlope: 0
        outSlope: 0
        tangentMode: 0
      - serializedVersion: 2
        time: 0.84999985
        value: -0.51578337
        inSlope: 0
        outSlope: 0
        tangentMode: 0
      - serializedVersion: 2
        time: 0.8666665
        value: -0.51578337
        inSlope: 0
        outSlope: 0
        tangentMode: 0
      - serializedVersion: 2
        time: 0.88333315
        value: -0.51578337
        inSlope: 0
        outSlope: 0
        tangentMode: 0
      - serializedVersion: 2
        time: 0.8999998
        value: -0.51578337
        inSlope: 0
        outSlope: 0
        tangentMode: 0
      - serializedVersion: 2
        time: 0.91666645
        value: -0.51578337
        inSlope: 0
        outSlope: 0
        tangentMode: 0
      - serializedVersion: 2
        time: 0.9333331
        value: -0.51578337
        inSlope: 0
        outSlope: 0
        tangentMode: 0
      - serializedVersion: 2
        time: 0.94999975
        value: -0.51578337
        inSlope: 0
        outSlope: 0
        tangentMode: 0
      - serializedVersion: 2
        time: 0.9666664
        value: -0.51578337
        inSlope: 0
        outSlope: 0
        tangentMode: 0
      - serializedVersion: 2
        time: 0.98333305
        value: -0.51578337
        inSlope: 0
        outSlope: 0
        tangentMode: 0
      - serializedVersion: 2
        time: 1
        value: -0.51578337
        inSlope: 0
        outSlope: 0
        tangentMode: 0
      m_PreInfinity: 2
      m_PostInfinity: 2
      m_RotationOrder: 4
    attribute: m_LocalRotation.y
    path: Right Hand
    classID: 4
    script: {fileID: 0}
  - curve:
      serializedVersion: 2
      m_Curve:
      - serializedVersion: 2
        time: 0
        value: 0
        inSlope: -0.9886585
        outSlope: -0.9886585
        tangentMode: 0
      - serializedVersion: 2
        time: 0.016666668
        value: -0.016477643
        inSlope: -1.8104042
        outSlope: -1.8104042
        tangentMode: 0
      - serializedVersion: 2
        time: 0.033333335
        value: -0.06034681
        inSlope: -3.1787179
        outSlope: -3.1787179
        tangentMode: 0
      - serializedVersion: 2
        time: 0.050000004
        value: -0.122434914
        inSlope: -3.9825482
        outSlope: -3.9825482
        tangentMode: 0
      - serializedVersion: 2
        time: 0.06666667
        value: -0.19309843
        inSlope: -4.2246842
        outSlope: -4.2246842
        tangentMode: 0
      - serializedVersion: 2
        time: 0.083333336
        value: -0.2632577
        inSlope: -3.9746327
        outSlope: -3.9746327
        tangentMode: 0
      - serializedVersion: 2
        time: 0.1
        value: -0.32558617
        inSlope: -3.3641958
        outSlope: -3.3641958
        tangentMode: 0
      - serializedVersion: 2
        time: 0.11666667
        value: -0.37539756
        inSlope: -2.555908
        outSlope: -2.555908
        tangentMode: 0
      - serializedVersion: 2
        time: 0.13333334
        value: -0.4107831
        inSlope: -1.6926837
        outSlope: -1.6926837
        tangentMode: 0
      - serializedVersion: 2
        time: 0.15
        value: -0.43182036
        inSlope: -0.8452589
        outSlope: -0.8452589
        tangentMode: 0
      - serializedVersion: 2
        time: 0.16666667
        value: -0.4389584
        inSlope: -0.21414132
        outSlope: -0.21414132
        tangentMode: 0
      - serializedVersion: 2
        time: 0.18333334
        value: -0.4389584
        inSlope: 0
        outSlope: 0
        tangentMode: 0
      - serializedVersion: 2
        time: 0.2
        value: -0.4389584
        inSlope: 0
        outSlope: 0
        tangentMode: 0
      - serializedVersion: 2
        time: 0.21666667
        value: -0.4389584
        inSlope: 0
        outSlope: 0
        tangentMode: 0
      - serializedVersion: 2
        time: 0.23333333
        value: -0.4389584
        inSlope: 0
        outSlope: 0
        tangentMode: 0
      - serializedVersion: 2
        time: 0.25
        value: -0.4389584
        inSlope: 0
        outSlope: 0
        tangentMode: 0
      - serializedVersion: 2
        time: 0.26666668
        value: -0.4389584
        inSlope: 0
        outSlope: 0
        tangentMode: 0
      - serializedVersion: 2
        time: 0.28333336
        value: -0.4389584
        inSlope: 0
        outSlope: 0
        tangentMode: 0
      - serializedVersion: 2
        time: 0.30000004
        value: -0.4389584
        inSlope: 0
        outSlope: 0
        tangentMode: 0
      - serializedVersion: 2
        time: 0.31666672
        value: -0.4389584
        inSlope: 0
        outSlope: 0
        tangentMode: 0
      - serializedVersion: 2
        time: 0.3333334
        value: -0.4389584
        inSlope: 0
        outSlope: 0
        tangentMode: 0
      - serializedVersion: 2
        time: 0.35000008
        value: -0.4389584
        inSlope: 0
        outSlope: 0
        tangentMode: 0
      - serializedVersion: 2
        time: 0.36666676
        value: -0.4389584
        inSlope: 0
        outSlope: 0
        tangentMode: 0
      - serializedVersion: 2
        time: 0.38333344
        value: -0.4389584
        inSlope: 0
        outSlope: 0
        tangentMode: 0
      - serializedVersion: 2
        time: 0.40000013
        value: -0.4389584
        inSlope: 0
        outSlope: 0
        tangentMode: 0
      - serializedVersion: 2
        time: 0.4166668
        value: -0.4389584
        inSlope: 0
        outSlope: 0
        tangentMode: 0
      - serializedVersion: 2
        time: 0.4333335
        value: -0.4389584
        inSlope: 0
        outSlope: 0
        tangentMode: 0
      - serializedVersion: 2
        time: 0.45000017
        value: -0.4389584
        inSlope: 0
        outSlope: 0
        tangentMode: 0
      - serializedVersion: 2
        time: 0.46666685
        value: -0.4389584
        inSlope: 0
        outSlope: 0
        tangentMode: 0
      - serializedVersion: 2
        time: 0.48333353
        value: -0.4389584
        inSlope: 0
        outSlope: 0
        tangentMode: 0
      - serializedVersion: 2
        time: 0.5000002
        value: -0.4389584
        inSlope: 0
        outSlope: 0
        tangentMode: 0
      - serializedVersion: 2
        time: 0.5166668
        value: -0.4389584
        inSlope: 0
        outSlope: 0
        tangentMode: 0
      - serializedVersion: 2
        time: 0.5333335
        value: -0.4389584
        inSlope: 0
        outSlope: 0
        tangentMode: 0
      - serializedVersion: 2
        time: 0.55000013
        value: -0.4389584
        inSlope: 0
        outSlope: 0
        tangentMode: 0
      - serializedVersion: 2
        time: 0.5666668
        value: -0.4389584
        inSlope: 0
        outSlope: 0
        tangentMode: 0
      - serializedVersion: 2
        time: 0.58333343
        value: -0.4389584
        inSlope: 0
        outSlope: 0
        tangentMode: 0
      - serializedVersion: 2
        time: 0.6000001
        value: -0.4389584
        inSlope: 0
        outSlope: 0
        tangentMode: 0
      - serializedVersion: 2
        time: 0.61666673
        value: -0.4389584
        inSlope: 0
        outSlope: 0
        tangentMode: 0
      - serializedVersion: 2
        time: 0.6333334
        value: -0.4389584
        inSlope: 0
        outSlope: 0
        tangentMode: 0
      - serializedVersion: 2
        time: 0.65000004
        value: -0.4389584
        inSlope: 0
        outSlope: 0
        tangentMode: 0
      - serializedVersion: 2
        time: 0.6666667
        value: -0.4389584
        inSlope: 0
        outSlope: 0
        tangentMode: 0
      - serializedVersion: 2
        time: 0.68333334
        value: -0.4389584
        inSlope: 0
        outSlope: 0
        tangentMode: 0
      - serializedVersion: 2
        time: 0.7
        value: -0.4389584
        inSlope: 0
        outSlope: 0
        tangentMode: 0
      - serializedVersion: 2
        time: 0.71666664
        value: -0.4389584
        inSlope: 0
        outSlope: 0
        tangentMode: 0
      - serializedVersion: 2
        time: 0.7333333
        value: -0.4389584
        inSlope: 0
        outSlope: 0
        tangentMode: 0
      - serializedVersion: 2
        time: 0.74999994
        value: -0.4389584
        inSlope: 0
        outSlope: 0
        tangentMode: 0
      - serializedVersion: 2
        time: 0.7666666
        value: -0.4389584
        inSlope: 0
        outSlope: 0
        tangentMode: 0
      - serializedVersion: 2
        time: 0.78333324
        value: -0.4389584
        inSlope: 0
        outSlope: 0
        tangentMode: 0
      - serializedVersion: 2
        time: 0.7999999
        value: -0.4389584
        inSlope: 0
        outSlope: 0
        tangentMode: 0
      - serializedVersion: 2
        time: 0.81666654
        value: -0.4389584
        inSlope: 0
        outSlope: 0
        tangentMode: 0
      - serializedVersion: 2
        time: 0.8333332
        value: -0.4389584
        inSlope: 0
        outSlope: 0
        tangentMode: 0
      - serializedVersion: 2
        time: 0.84999985
        value: -0.4389584
        inSlope: 0
        outSlope: 0
        tangentMode: 0
      - serializedVersion: 2
        time: 0.8666665
        value: -0.4389584
        inSlope: 0
        outSlope: 0
        tangentMode: 0
      - serializedVersion: 2
        time: 0.88333315
        value: -0.4389584
        inSlope: 0
        outSlope: 0
        tangentMode: 0
      - serializedVersion: 2
        time: 0.8999998
        value: -0.4389584
        inSlope: 0
        outSlope: 0
        tangentMode: 0
      - serializedVersion: 2
        time: 0.91666645
        value: -0.4389584
        inSlope: 0
        outSlope: 0
        tangentMode: 0
      - serializedVersion: 2
        time: 0.9333331
        value: -0.4389584
        inSlope: 0
        outSlope: 0
        tangentMode: 0
      - serializedVersion: 2
        time: 0.94999975
        value: -0.4389584
        inSlope: 0
        outSlope: 0
        tangentMode: 0
      - serializedVersion: 2
        time: 0.9666664
        value: -0.4389584
        inSlope: 0
        outSlope: 0
        tangentMode: 0
      - serializedVersion: 2
        time: 0.98333305
        value: -0.4389584
        inSlope: 0
        outSlope: 0
        tangentMode: 0
      - serializedVersion: 2
        time: 1
        value: -0.4389584
        inSlope: 0
        outSlope: 0
        tangentMode: 0
      m_PreInfinity: 2
      m_PostInfinity: 2
      m_RotationOrder: 4
    attribute: m_LocalRotation.z
    path: Right Hand
    classID: 4
    script: {fileID: 0}
  - curve:
      serializedVersion: 2
      m_Curve:
      - serializedVersion: 2
        time: 0
        value: 0.8677351
        inSlope: -0.22675394
        outSlope: -0.22675394
        tangentMode: 0
      - serializedVersion: 2
        time: 0.016666668
        value: 0.86395586
        inSlope: -0.47457752
        outSlope: -0.47457752
        tangentMode: 0
      - serializedVersion: 2
        time: 0.033333335
        value: 0.85191584
        inSlope: -1.0298269
        outSlope: -1.0298269
        tangentMode: 0
      - serializedVersion: 2
        time: 0.050000004
        value: 0.8296283
        inSlope: -1.6826838
        outSlope: -1.6826838
        tangentMode: 0
      - serializedVersion: 2
        time: 0.06666667
        value: 0.7958264
        inSlope: -2.3420587
        outSlope: -2.3420587
        tangentMode: 0
      - serializedVersion: 2
        time: 0.083333336
        value: 0.7515597
        inSlope: -2.8557053
        outSlope: -2.8557053
        tangentMode: 0
      - serializedVersion: 2
        time: 0.1
        value: 0.7006362
        inSlope: -3.0752192
        outSlope: -3.0752192
        tangentMode: 0
      - serializedVersion: 2
        time: 0.11666667
        value: 0.6490524
        inSlope: -2.9029312
        outSlope: -2.9029312
        tangentMode: 0
      - serializedVersion: 2
        time: 0.13333334
        value: 0.6038718
        inSlope: -2.3072126
        outSlope: -2.3072126
        tangentMode: 0
      - serializedVersion: 2
        time: 0.15
        value: 0.5721453
        inSlope: -1.30767
        outSlope: -1.30767
        tangentMode: 0
      - serializedVersion: 2
        time: 0.16666667
        value: 0.5602828
        inSlope: -0.35587373
        outSlope: -0.35587373
        tangentMode: 0
      - serializedVersion: 2
        time: 0.18333334
        value: 0.5602828
        inSlope: 0
        outSlope: 0
        tangentMode: 0
      - serializedVersion: 2
        time: 0.2
        value: 0.5602828
        inSlope: 0
        outSlope: 0
        tangentMode: 0
      - serializedVersion: 2
        time: 0.21666667
        value: 0.5602828
        inSlope: 0
        outSlope: 0
        tangentMode: 0
      - serializedVersion: 2
        time: 0.23333333
        value: 0.5602828
        inSlope: 0
        outSlope: 0
        tangentMode: 0
      - serializedVersion: 2
        time: 0.25
        value: 0.5602828
        inSlope: 0
        outSlope: 0
        tangentMode: 0
      - serializedVersion: 2
        time: 0.26666668
        value: 0.5602828
        inSlope: 0
        outSlope: 0
        tangentMode: 0
      - serializedVersion: 2
        time: 0.28333336
        value: 0.5602828
        inSlope: 0
        outSlope: 0
        tangentMode: 0
      - serializedVersion: 2
        time: 0.30000004
        value: 0.5602828
        inSlope: 0
        outSlope: 0
        tangentMode: 0
      - serializedVersion: 2
        time: 0.31666672
        value: 0.5602828
        inSlope: 0
        outSlope: 0
        tangentMode: 0
      - serializedVersion: 2
        time: 0.3333334
        value: 0.5602828
        inSlope: 0
        outSlope: 0
        tangentMode: 0
      - serializedVersion: 2
        time: 0.35000008
        value: 0.5602828
        inSlope: 0
        outSlope: 0
        tangentMode: 0
      - serializedVersion: 2
        time: 0.36666676
        value: 0.5602828
        inSlope: 0
        outSlope: 0
        tangentMode: 0
      - serializedVersion: 2
        time: 0.38333344
        value: 0.5602828
        inSlope: 0
        outSlope: 0
        tangentMode: 0
      - serializedVersion: 2
        time: 0.40000013
        value: 0.5602828
        inSlope: 0
        outSlope: 0
        tangentMode: 0
      - serializedVersion: 2
        time: 0.4166668
        value: 0.5602828
        inSlope: 0
        outSlope: 0
        tangentMode: 0
      - serializedVersion: 2
        time: 0.4333335
        value: 0.5602828
        inSlope: 0
        outSlope: 0
        tangentMode: 0
      - serializedVersion: 2
        time: 0.45000017
        value: 0.5602828
        inSlope: 0
        outSlope: 0
        tangentMode: 0
      - serializedVersion: 2
        time: 0.46666685
        value: 0.5602828
        inSlope: 0
        outSlope: 0
        tangentMode: 0
      - serializedVersion: 2
        time: 0.48333353
        value: 0.5602828
        inSlope: 0
        outSlope: 0
        tangentMode: 0
      - serializedVersion: 2
        time: 0.5000002
        value: 0.5602828
        inSlope: 0
        outSlope: 0
        tangentMode: 0
      - serializedVersion: 2
        time: 0.5166668
        value: 0.5602828
        inSlope: 0
        outSlope: 0
        tangentMode: 0
      - serializedVersion: 2
        time: 0.5333335
        value: 0.5602828
        inSlope: 0
        outSlope: 0
        tangentMode: 0
      - serializedVersion: 2
        time: 0.55000013
        value: 0.5602828
        inSlope: 0
        outSlope: 0
        tangentMode: 0
      - serializedVersion: 2
        time: 0.5666668
        value: 0.5602828
        inSlope: 0
        outSlope: 0
        tangentMode: 0
      - serializedVersion: 2
        time: 0.58333343
        value: 0.5602828
        inSlope: 0
        outSlope: 0
        tangentMode: 0
      - serializedVersion: 2
        time: 0.6000001
        value: 0.5602828
        inSlope: 0
        outSlope: 0
        tangentMode: 0
      - serializedVersion: 2
        time: 0.61666673
        value: 0.5602828
        inSlope: 0
        outSlope: 0
        tangentMode: 0
      - serializedVersion: 2
        time: 0.6333334
        value: 0.5602828
        inSlope: 0
        outSlope: 0
        tangentMode: 0
      - serializedVersion: 2
        time: 0.65000004
        value: 0.5602828
        inSlope: 0
        outSlope: 0
        tangentMode: 0
      - serializedVersion: 2
        time: 0.6666667
        value: 0.5602828
        inSlope: 0
        outSlope: 0
        tangentMode: 0
      - serializedVersion: 2
        time: 0.68333334
        value: 0.5602828
        inSlope: 0
        outSlope: 0
        tangentMode: 0
      - serializedVersion: 2
        time: 0.7
        value: 0.5602828
        inSlope: 0
        outSlope: 0
        tangentMode: 0
      - serializedVersion: 2
        time: 0.71666664
        value: 0.5602828
        inSlope: 0
        outSlope: 0
        tangentMode: 0
      - serializedVersion: 2
        time: 0.7333333
        value: 0.5602828
        inSlope: 0
        outSlope: 0
        tangentMode: 0
      - serializedVersion: 2
        time: 0.74999994
        value: 0.5602828
        inSlope: 0
        outSlope: 0
        tangentMode: 0
      - serializedVersion: 2
        time: 0.7666666
        value: 0.5602828
        inSlope: 0
        outSlope: 0
        tangentMode: 0
      - serializedVersion: 2
        time: 0.78333324
        value: 0.5602828
        inSlope: 0
        outSlope: 0
        tangentMode: 0
      - serializedVersion: 2
        time: 0.7999999
        value: 0.5602828
        inSlope: 0
        outSlope: 0
        tangentMode: 0
      - serializedVersion: 2
        time: 0.81666654
        value: 0.5602828
        inSlope: 0
        outSlope: 0
        tangentMode: 0
      - serializedVersion: 2
        time: 0.8333332
        value: 0.5602828
        inSlope: 0
        outSlope: 0
        tangentMode: 0
      - serializedVersion: 2
        time: 0.84999985
        value: 0.5602828
        inSlope: 0
        outSlope: 0
        tangentMode: 0
      - serializedVersion: 2
        time: 0.8666665
        value: 0.5602828
        inSlope: 0
        outSlope: 0
        tangentMode: 0
      - serializedVersion: 2
        time: 0.88333315
        value: 0.5602828
        inSlope: 0
        outSlope: 0
        tangentMode: 0
      - serializedVersion: 2
        time: 0.8999998
        value: 0.5602828
        inSlope: 0
        outSlope: 0
        tangentMode: 0
      - serializedVersion: 2
        time: 0.91666645
        value: 0.5602828
        inSlope: 0
        outSlope: 0
        tangentMode: 0
      - serializedVersion: 2
        time: 0.9333331
        value: 0.5602828
        inSlope: 0
        outSlope: 0
        tangentMode: 0
      - serializedVersion: 2
        time: 0.94999975
        value: 0.5602828
        inSlope: 0
        outSlope: 0
        tangentMode: 0
      - serializedVersion: 2
        time: 0.9666664
        value: 0.5602828
        inSlope: 0
        outSlope: 0
        tangentMode: 0
      - serializedVersion: 2
        time: 0.98333305
        value: 0.5602828
        inSlope: 0
        outSlope: 0
        tangentMode: 0
      - serializedVersion: 2
        time: 1
        value: 0.5602828
        inSlope: 0
        outSlope: 0
        tangentMode: 0
      m_PreInfinity: 2
      m_PostInfinity: 2
      m_RotationOrder: 4
    attribute: m_LocalRotation.w
    path: Right Hand
    classID: 4
    script: {fileID: 0}
  m_EulerEditorCurves:
  - curve:
      serializedVersion: 2
      m_Curve:
      - serializedVersion: 2
        time: 0
        value: 0
        inSlope: 0
        outSlope: 0
        tangentMode: 136
      - serializedVersion: 2
        time: 0.16666667
        value: 4.675
        inSlope: 0
        outSlope: 0
        tangentMode: 136
      - serializedVersion: 2
        time: 1
        value: 4.675
        inSlope: 0
        outSlope: 0
        tangentMode: 136
      m_PreInfinity: 2
      m_PostInfinity: 2
      m_RotationOrder: 4
    attribute: localEulerAnglesBaked.x
    path: Right Hand
    classID: 4
    script: {fileID: 0}
  - curve:
      serializedVersion: 2
      m_Curve:
      - serializedVersion: 2
        time: 0
        value: -59.607002
        inSlope: 0
        outSlope: 0
        tangentMode: 136
      - serializedVersion: 2
        time: 0.16666667
        value: -89.241005
        inSlope: 0
        outSlope: 0
        tangentMode: 136
      - serializedVersion: 2
        time: 1
        value: -89.241005
        inSlope: 0
        outSlope: 0
        tangentMode: 136
      m_PreInfinity: 2
      m_PostInfinity: 2
      m_RotationOrder: 4
    attribute: localEulerAnglesBaked.y
    path: Right Hand
    classID: 4
    script: {fileID: 0}
  - curve:
      serializedVersion: 2
      m_Curve:
      - serializedVersion: 2
        time: 0
        value: 0
        inSlope: 0
        outSlope: 0
        tangentMode: 136
      - serializedVersion: 2
        time: 0.16666667
        value: -80.768005
        inSlope: 0
        outSlope: 0
        tangentMode: 136
      - serializedVersion: 2
        time: 1
        value: -80.768005
        inSlope: 0
        outSlope: 0
        tangentMode: 136
      m_PreInfinity: 2
      m_PostInfinity: 2
      m_RotationOrder: 4
    attribute: localEulerAnglesBaked.z
    path: Right Hand
    classID: 4
    script: {fileID: 0}
  m_HasGenericRootTransform: 0
  m_HasMotionFloatCurves: 0
  m_GenerateMotionCurves: 0
  m_Events: []
