%YAML 1.1
%TAG !u! tag:unity3d.com,2011:
--- !u!114 &11400000
MonoBehaviour:
  m_ObjectHideFlags: 0
  m_PrefabParentObject: {fileID: 0}
  m_PrefabInternal: {fileID: 0}
  m_GameObject: {fileID: 0}
  m_Enabled: 1
  m_EditorHideFlags: 0
  m_Script: {fileID: 11500000, guid: 09d77f6828e644c23b8e9d77da8f1d4d, type: 3}
  m_Name: gubba
  m_EditorClassIdentifier: 
  LettersPerPhoneme: 3
  PhonemeLength: 0.1
  SilenceLength: 0.08
  PitchSine: 0
  PitchRange: 0.1
  PitchSinSpeed: 10
  PitchRandom: 1
  RandomPhoneme: 0
  Phonemes:
  - PatternLetters: 
    isDefault: 1
    phoclips:
    - UseClipLength: 0
      UseOffset: 1
      Offset: 0.01
      clip: {fileID: 8300000, guid: c7d6b171b5af84cc1ab7a8134a350934, type: 3}
