%YAML 1.1
%TAG !u! tag:unity3d.com,2011:
--- !u!47 &1
QualitySettings:
  m_ObjectHideFlags: 0
  serializedVersion: 5
  m_CurrentQuality: 0
  m_QualitySettings:
  - serializedVersion: 2
    name: Fastest
    pixelLightCount: 4
    shadows: 1
    shadowResolution: 0
    shadowProjection: 1
    shadowCascades: 2
    shadowDistance: 20
    shadowNearPlaneOffset: 0.001
    shadowCascade2Split: 0.3038428
    shadowCascade4Split: {x: 0.06666667, y: 0.2, z: 0.46666667}
    shadowmaskMode: 1
    blendWeights: 1
    textureQuality: 0
    anisotropicTextures: 0
    antiAliasing: 0
    softParticles: 0
    softVegetation: 0
    realtimeReflectionProbes: 0
    billboardsFaceCameraPosition: 0
    vSyncCount: 1
    lodBias: 0.3
    maximumLODLevel: 0
    streamingMipmapsActive: 0
    streamingMipmapsAddAllCameras: 1
    streamingMipmapsMemoryBudget: 512
    streamingMipmapsRenderersPerFrame: 512
    streamingMipmapsMaxLevelReduction: 2
    streamingMipmapsMaxFileIORequests: 1024
    particleRaycastBudget: 16
    asyncUploadTimeSlice: 2
    asyncUploadBufferSize: 4
    asyncUploadPersistentBuffer: 1
    resolutionScalingFixedDPIFactor: 1
    excludedTargetPlatforms:
    - Samsung TV
    - Tizen
    - Android
  m_PerPlatformDefaultQuality: {}
