%YAML 1.1
%TAG !u! tag:unity3d.com,2011:
--- !u!1001 &100100000
Prefab:
  m_ObjectHideFlags: 1
  serializedVersion: 2
  m_Modification:
    m_TransformParent: {fileID: 0}
    m_Modifications: []
    m_RemovedComponents: []
  m_ParentPrefab: {fileID: 0}
  m_RootGameObject: {fileID: 1485041273960960}
  m_IsPrefabParent: 1
--- !u!1 &1485041273960960
GameObject:
  m_ObjectHideFlags: 0
  m_PrefabParentObject: {fileID: 0}
  m_PrefabInternal: {fileID: 100100000}
  serializedVersion: 5
  m_Component:
  - component: {fileID: 4711979218700554}
  - component: {fileID: 114546770975263284}
  - component: {fileID: 114538909843186264}
  - component: {fileID: 114714724757658454}
  - component: {fileID: 23997343426470806}
  - component: {fileID: 33961610727792904}
  m_Layer: 9
  m_Name: item-structurebomb-0
  m_TagString: Untagged
  m_Icon: {fileID: 0}
  m_NavMeshLayer: 0
  m_StaticEditorFlags: 0
  m_IsActive: 1
--- !u!4 &4711979218700554
Transform:
  m_ObjectHideFlags: 1
  m_PrefabParentObject: {fileID: 0}
  m_PrefabInternal: {fileID: 100100000}
  m_GameObject: {fileID: 1485041273960960}
  m_LocalRotation: {x: 0.059260502, y: 0.96587086, z: -0.035645764, w: -0.24962205}
  m_LocalPosition: {x: 0, y: 0, z: 0}
  m_LocalScale: {x: 1, y: 1, z: 1}
  m_Children: []
  m_Father: {fileID: 0}
  m_RootOrder: 0
  m_LocalEulerAnglesHint: {x: 0, y: 0, z: 0}
--- !u!23 &23997343426470806
MeshRenderer:
  m_ObjectHideFlags: 1
  m_PrefabParentObject: {fileID: 0}
  m_PrefabInternal: {fileID: 100100000}
  m_GameObject: {fileID: 1485041273960960}
  m_Enabled: 1
  m_CastShadows: 1
  m_ReceiveShadows: 1
  m_DynamicOccludee: 0
  m_MotionVectors: 2
  m_LightProbeUsage: 0
  m_ReflectionProbeUsage: 0
  m_Materials:
  - {fileID: 2100000, guid: 4729ad725f3be46b48384938e208e32e, type: 2}
  m_StaticBatchInfo:
    firstSubMesh: 0
    subMeshCount: 0
  m_StaticBatchRoot: {fileID: 0}
  m_ProbeAnchor: {fileID: 0}
  m_LightProbeVolumeOverride: {fileID: 0}
  m_ScaleInLightmap: 1
  m_PreserveUVs: 0
  m_IgnoreNormalsForChartDetection: 0
  m_ImportantGI: 0
  m_StitchLightmapSeams: 0
  m_SelectedEditorRenderState: 3
  m_MinimumChartSize: 4
  m_AutoUVMaxDistance: 0.5
  m_AutoUVMaxAngle: 89
  m_LightmapParameters: {fileID: 0}
  m_SortingLayerID: 0
  m_SortingLayer: 0
  m_SortingOrder: 0
--- !u!33 &33961610727792904
MeshFilter:
  m_ObjectHideFlags: 1
  m_PrefabParentObject: {fileID: 0}
  m_PrefabInternal: {fileID: 100100000}
  m_GameObject: {fileID: 1485041273960960}
  m_Mesh: {fileID: 4300236, guid: 6bdea92d8756747228e8077b07e8f4ea, type: 3}
--- !u!114 &114538909843186264
MonoBehaviour:
  m_ObjectHideFlags: 1
  m_PrefabParentObject: {fileID: 0}
  m_PrefabInternal: {fileID: 100100000}
  m_GameObject: {fileID: 1485041273960960}
  m_Enabled: 0
  m_EditorHideFlags: 0
  m_Script: {fileID: 11500000, guid: b354d2a7dbe8646c6a420d77974217c2, type: 3}
  m_Name: 
  m_EditorClassIdentifier: 
  moveTransform: {fileID: 4711979218700554}
  targetTransform: {fileID: 0}
  localOffset: {x: 0, y: 0, z: 0}
  duration: 1
  lerpType: 0
  translateCurve:
    serializedVersion: 2
    m_Curve:
    - serializedVersion: 2
      time: 0
      value: 0
      inSlope: 0
      outSlope: 0
      tangentMode: 34
    - serializedVersion: 2
      time: 0.5
      value: 0
      inSlope: 0
      outSlope: 0
      tangentMode: 0
    - serializedVersion: 2
      time: 1
      value: 1
      inSlope: 5.1520705
      outSlope: 5.1520705
      tangentMode: 0
    m_PreInfinity: 2
    m_PostInfinity: 2
    m_RotationOrder: 0
  rotateCurve:
    serializedVersion: 2
    m_Curve:
    - serializedVersion: 2
      time: 0
      value: 0
      inSlope: 1
      outSlope: 1
      tangentMode: 34
    - serializedVersion: 2
      time: 1
      value: 1
      inSlope: 1
      outSlope: 1
      tangentMode: 34
    m_PreInfinity: 2
    m_PostInfinity: 2
    m_RotationOrder: 0
  LerpRotation: 0
  IgnoreYaw: 1
  Scale: 0
  targetScale: 1
  Continuous: 0
  Rigidbody: 0
  force: 1
  UseMaxDistance: 0
  MaxDistance: 2
--- !u!114 &114546770975263284
MonoBehaviour:
  m_ObjectHideFlags: 1
  m_PrefabParentObject: {fileID: 0}
  m_PrefabInternal: {fileID: 100100000}
  m_GameObject: {fileID: 1485041273960960}
  m_Enabled: 1
  m_EditorHideFlags: 0
  m_Script: {fileID: 11500000, guid: 40a8e0f78308a457492354c1731c1f1e, type: 3}
  m_Name: 
  m_EditorClassIdentifier: 
  Type: weapon
  SwagPrefab: {fileID: 114000013219091106, guid: fbb1a0337b0e347a583ce2c0c5418e67,
    type: 2}
  InInventoryForward: {x: 0, y: 0, z: 1}
  InInventoryUp: {x: 0, y: 1, z: 0}
  Weapon: {fileID: 114565346633202948, guid: e7936a0d6e032477ab8c3c94ae80c991, type: 2}
  Shield: {fileID: 0}
--- !u!114 &114714724757658454
MonoBehaviour:
  m_ObjectHideFlags: 1
  m_PrefabParentObject: {fileID: 0}
  m_PrefabInternal: {fileID: 100100000}
  m_GameObject: {fileID: 1485041273960960}
  m_Enabled: 1
  m_EditorHideFlags: 0
  m_Script: {fileID: 11500000, guid: 97716fe5f1ab5406494e796838c91b4a, type: 3}
  m_Name: 
  m_EditorClassIdentifier: 
  faceCamera: 1
  keepUpright: 0
  flip: 0
  showImage: 0
  mr: {fileID: 23997343426470806}
  mf: {fileID: 33961610727792904}
  sprite: {fileID: 21300136, guid: d4e56880637234b99b4501cf5e223a6a, type: 3}
